<?xml version="1.0" encoding="utf-8"?>
<!-- Generator: Adobe Illustrator 16.0.0, SVG Export Plug-In . SVG Version: 6.00 Build 0)  -->
<!DOCTYPE svg PUBLIC "-//W3C//DTD SVG 1.1//EN" "http://www.w3.org/Graphics/SVG/1.1/DTD/svg11.dtd">
<svg version="1.1" id="Layer_1" xmlns="http://www.w3.org/2000/svg" xmlns:xlink="http://www.w3.org/1999/xlink" x="0px" y="0px"
	 width="26px" height="26px" viewBox="0 0 26 26" enable-background="new 0 0 26 26" xml:space="preserve">
<g id="refresh">
	<g>
		<path fill="#FFFFFF" d="M13.92,3.55c-0.11-0.01-0.223-0.083-0.223-0.204V1.651c0-0.952-1.094-1.498-1.855-0.924L6.66,4.637
			c-0.836,0.63-0.828,1.879-0.003,2.502l5.185,3.924c0.763,0.575,1.856,0.03,1.856-0.923V8.577c0-0.131,0.129-0.187,0.259-0.21
			c1.678,0.259,3.196,1.212,4.167,2.615c0.982,1.42,1.321,3.158,0.955,4.895c-0.554,2.622-2.935,4.855-6.079,4.855
			c-3.431,0-6.223-2.79-6.223-6.22c0-0.826,0.162-1.628,0.483-2.384c0.42-0.994,0.117-2.393-1.144-3.023
			C4.815,8.517,3.455,8.91,2.951,10.031c-0.949,2.112-1.198,4.46-0.721,6.79C3.208,21.595,7.499,25.507,13,25.507
			c6.07,0,11.006-4.928,11.006-10.994C24.007,8.833,19.576,4.018,13.92,3.55z M13,24.148c-4.865,0-8.582-3.464-9.432-7.602
			C3.15,14.5,3.367,12.44,4.198,10.592c0.394-0.88,2.323-0.22,1.804,1.004c-0.392,0.925-0.591,1.906-0.591,2.917
			c0,4.184,3.405,7.586,7.589,7.586c3.839,0,6.743-2.747,7.417-5.939c0.445-2.107,0.03-4.222-1.168-5.954
			c-1.183-1.711-3.035-2.872-5.082-3.188c-0.982-0.152-1.835,0.609-1.835,1.561v1.142l-4.849-3.67c-0.106-0.079-0.107-0.239,0-0.321
			l4.849-3.71v1.328c0,0.822,0.635,1.495,1.478,1.565c4.953,0.41,8.833,4.627,8.833,9.602C22.641,19.826,18.316,24.148,13,24.148z"
			/>
	</g>
</g>
</svg>
