<?xml version="1.0" encoding="utf-8"?>
<!-- Generator: Adobe Illustrator 16.0.0, SVG Export Plug-In . SVG Version: 6.00 Build 0)  -->
<!DOCTYPE svg PUBLIC "-//W3C//DTD SVG 1.1//EN" "http://www.w3.org/Graphics/SVG/1.1/DTD/svg11.dtd">
<svg version="1.1" id="Layer_1" xmlns="http://www.w3.org/2000/svg" xmlns:xlink="http://www.w3.org/1999/xlink" x="0px" y="0px"
	 width="80px" height="80px" viewBox="0 0 80 80" enable-background="new 0 0 80 80" xml:space="preserve">
<g>
	<path fill="#20B18D" d="M40,0c22.091,0,40,17.909,40,40c0,22.092-17.909,40-40,40S0,62.092,0,40C0,17.909,17.909,0,40,0z"/>
</g>
<circle fill="#F4BD34" stroke="#20B18D" stroke-miterlimit="10" cx="46.348" cy="10.884" r="4.273"/>
<circle fill="#EAAF2B" stroke="#20B18D" stroke-miterlimit="10" cx="39.857" cy="19.431" r="4.274"/>
<circle fill="#EAAF2B" stroke="#20B18D" stroke-miterlimit="10" cx="33.671" cy="10.884" r="4.273"/>
<g>
	<path fill="#EAAF2B" d="M30.307,27.917l4.088,7.626v1.694c0,0-9.539,4.959-11.938,13.845c-2.397,8.885-4.033,24.802,17.552,25.782
		V24.101L37.665,26.2c0,0-0.123,0.408-0.94,0.49h-5.441C31.284,26.69,30.307,26.772,30.307,27.917z"/>
	<path fill="#D68244" d="M34.395,35.543c0,0,0.764-1.304,2.29-1.767l3.325-0.109v2.589c0,0-1.689-0.081-2.807,0.246
		c-1.118,0.326-2.808,0.899-2.808,0.899V35.543z"/>
	<path fill="#F4BD34" d="M49.693,27.917l-4.088,7.626v1.694c0,0,9.538,4.959,11.936,13.845c2.399,8.885,4.034,24.802-17.551,25.782
		V24.101l2.344,2.099c0,0,0.123,0.408,0.94,0.49h5.44C48.715,26.69,49.693,26.772,49.693,27.917z"/>
	<path fill="#D68244" d="M45.605,35.543c0,0-0.765-1.304-2.291-1.767l-3.324-0.109v2.589c0,0,1.689-0.081,2.807,0.246
		c1.117,0.326,2.809,0.899,2.809,0.899V35.543z"/>
	<path fill="none" stroke="#20B18D" stroke-miterlimit="10" d="M57.541,51.082c-2.397-8.886-11.936-13.845-11.936-13.845v-1.694
		l4.088-7.626c0-1.145-0.979-1.227-0.979-1.227h-5.44c-0.817-0.082-0.94-0.49-0.94-0.49l-2.325-2.082v-0.017L40,24.11l-0.01-0.009
		v0.017L37.665,26.2c0,0-0.123,0.408-0.94,0.49h-5.441c0,0-0.977,0.082-0.977,1.227l4.088,7.626v1.694
		c0,0-9.539,4.959-11.938,13.845c-2.397,8.882-4.031,24.792,17.533,25.781v0.001c0.003,0,0.006,0,0.01,0c0.003,0,0.006,0,0.009,0
		v-0.001C61.573,75.874,59.939,59.964,57.541,51.082z"/>
</g>
</svg>
