<?xml version="1.0" encoding="utf-8"?>
<!-- Generator: Adobe Illustrator 17.0.0, SVG Export Plug-In . SVG Version: 6.00 Build 0)  -->
<!DOCTYPE svg PUBLIC "-//W3C//DTD SVG 1.1 Basic//EN" "http://www.w3.org/Graphics/SVG/1.1/DTD/svg11-basic.dtd" [
	<!ENTITY ns_flows "http://ns.adobe.com/Flows/1.0/">
	<!ENTITY ns_extend "http://ns.adobe.com/Extensibility/1.0/">
	<!ENTITY ns_ai "http://ns.adobe.com/AdobeIllustrator/10.0/">
	<!ENTITY ns_graphs "http://ns.adobe.com/Graphs/1.0/">
]>
<svg version="1.1" baseProfile="basic" id="Layer_1" xmlns:x="&ns_extend;" xmlns:i="&ns_ai;" xmlns:graph="&ns_graphs;"
	 xmlns="http://www.w3.org/2000/svg" xmlns:xlink="http://www.w3.org/1999/xlink" xmlns:a="http://ns.adobe.com/AdobeSVGViewerExtensions/3.0/"
	 x="0px" y="0px" width="100px" height="100px" viewBox="0 0 100 100" xml:space="preserve">
<g>
	<path fill-rule="evenodd" clip-rule="evenodd" fill="#FFFFFF" d="M89.91,80.139c-26.645,0-53.199,0-79.82,0
		c0-20.118,0-40.16,0-60.278c26.621,0,53.175,0,79.82,0C89.91,39.94,89.91,59.978,89.91,80.139z M19.822,25.518
		c0.231,0.32,0.31,0.46,0.42,0.575c9.093,9.202,18.174,18.402,27.278,27.589c1.546,1.555,3.731,1.546,5.301,0.006
		c2.024-1.99,3.993-4.041,5.995-6.056C65.87,40.53,72.93,33.439,79.984,26.334c0.213-0.207,0.39-0.46,0.688-0.816
		C60.337,25.518,40.186,25.518,19.822,25.518z M19.718,74.445c20.316,0,40.339,0,60.588,0c-6.707-6.88-13.262-13.581-19.926-20.413
		c-1.242,1.275-2.392,2.499-3.585,3.688c-3.737,3.74-9.692,3.691-13.378-0.1c-1.193-1.229-2.383-2.453-3.609-3.704
		C33.059,60.815,26.474,67.543,19.718,74.445z M15.786,30.448c0,12.906,0,26.256,0,39.861c6.744-6.893,13.323-13.606,20.109-20.538
		C29.067,43.217,22.317,36.726,15.786,30.448z M84.25,30.424c-6.585,6.512-13.158,13.015-19.82,19.6
		c6.594,6.756,13.125,13.438,19.82,20.294C84.25,56.81,84.25,43.594,84.25,30.424z"/>
</g>
</svg>
