<?xml version="1.0" encoding="utf-8"?>
<!-- Generator: Adobe Illustrator 16.0.0, SVG Export Plug-In . SVG Version: 6.00 Build 0)  -->
<!DOCTYPE svg PUBLIC "-//W3C//DTD SVG 1.1//EN" "http://www.w3.org/Graphics/SVG/1.1/DTD/svg11.dtd">
<svg version="1.1" id="Layer_1" xmlns="http://www.w3.org/2000/svg" xmlns:xlink="http://www.w3.org/1999/xlink" x="0px" y="0px"
	 width="48px" height="48px" viewBox="0 0 48 48" enable-background="new 0 0 48 48" xml:space="preserve">
<circle fill="#F2784B" cx="24" cy="24" r="23.75"/>
<g id="home">
	<path fill="#FFFFFF" d="M33.586,20.967l-8.679-6.713c-0.247-0.166-0.564-0.266-0.909-0.266c-0.342,0-0.659,0.1-0.905,0.266
		c0,0-8.427,6.523-8.587,6.643l-0.002,0.002C14.195,21.158,14,21.547,14,21.982v10.609c0,0.783,0.637,1.42,1.424,1.42h3.82
		c0.787,0,1.427-0.635,1.427-1.42V27.41c0-0.783,0.638-1.418,1.426-1.418h3.805c0.787,0,1.427,0.635,1.427,1.418v5.182
		c0,0.785,0.638,1.42,1.426,1.42h3.82c0.788,0,1.426-0.637,1.426-1.42V21.875C33.977,21.521,33.823,21.203,33.586,20.967z"/>
</g>
</svg>
