<?xml version="1.0" encoding="utf-8"?>
<!-- Generator: Adobe Illustrator 16.0.0, SVG Export Plug-In . SVG Version: 6.00 Build 0)  -->
<!DOCTYPE svg PUBLIC "-//W3C//DTD SVG 1.1//EN" "http://www.w3.org/Graphics/SVG/1.1/DTD/svg11.dtd">
<svg version="1.1" id="Layer_1" xmlns="http://www.w3.org/2000/svg" xmlns:xlink="http://www.w3.org/1999/xlink" x="0px" y="0px"
	 width="58px" height="58px" viewBox="0 0 58 58" enable-background="new 0 0 58 58" xml:space="preserve">
<g>
	<path fill="#231F20" d="M29,1c15.439,0,28,12.561,28,28S44.439,57,29,57S1,44.439,1,29S13.561,1,29,1 M29,0C12.984,0,0,12.984,0,29
		c0,16.017,12.984,29,29,29c16.017,0,29-12.983,29-29C58,12.984,45.017,0,29,0L29,0z"/>
</g>
<g>
	<path fill="#231F20" d="M22.454,27.151c-0.511,0.705-0.295,1.219-0.089,1.544c1.593,2.512,4.15,5.12,6.802,6.803
		c0.519,0.327,1.01,0.295,1.542-0.093l1.896-1.384c0.876-0.61,1.831-0.651,2.756-0.117c0.034,0.021,3.676,2.137,5.123,3.586
		c1.827,1.826,0.627,3.586-1.2,5.412c-1.795,1.795-3.142,1.869-4.392,1.687c-0.951-0.137-6.765-2.113-13.135-8.484
		s-8.349-12.184-8.474-13.065c-0.131-0.895-0.355-2.431,1.675-4.461c1.824-1.824,3.585-3.028,5.414-1.201
		c1.445,1.444,3.564,5.089,3.585,5.125c0.534,0.924,0.494,1.878-0.119,2.754L22.454,27.151z M22.814,24.542
		c0.337-0.482,0.355-0.906,0.061-1.415c-0.523-0.908-2.27-3.75-3.387-4.867c-1.198-1.197-2.267-0.177-3.646,1.201
		c-1.587,1.587-1.44,2.593-1.333,3.33c0.12,0.839,2.082,6.381,8.131,12.429c6.047,6.048,11.59,8.012,12.357,8.121
		c1.132,0.165,1.994,0.085,3.403-1.323c1.352-1.353,2.391-2.454,1.199-3.645c-1.119-1.122-3.959-2.865-4.864-3.388
		c-0.511-0.294-0.93-0.278-1.417,0.062l-1.876,1.371c-0.942,0.684-2,0.734-2.946,0.135c-2.734-1.733-5.453-4.453-7.188-7.19
		c-0.603-0.95-0.554-1.996,0.134-2.946L22.814,24.542z"/>
	<g>
		<g>
			<path fill="#231F20" d="M33.758,30.271c-0.989,0-2.143-0.379-3.223-1.103c-2.319-1.556-3.395-4.037-2.875-6.638
				c0.447-2.24,5.429-6.652,5.996-7.148l0.855,0.979c-2.012,1.761-5.305,5.062-5.577,6.424c-0.611,3.063,1.625,4.833,2.325,5.303
				c1.407,0.945,2.767,1.055,3.332,0.682c2.143-1.423,9.649-9.66,9.726-9.743l0.961,0.875c-0.312,0.344-7.691,8.439-9.968,9.951
				C34.888,30.135,34.353,30.271,33.758,30.271z"/>
		</g>
		<g>
			<polygon fill="#231F20" points="37.198,19.199 35.897,19.199 35.897,13.994 29.895,13.994 29.895,12.694 37.198,12.694 			"/>
		</g>
	</g>
</g>
</svg>
