<?xml version="1.0" encoding="utf-8"?>
<!-- Generator: Adobe Illustrator 17.0.0, SVG Export Plug-In . SVG Version: 6.00 Build 0)  -->
<!DOCTYPE svg PUBLIC "-//W3C//DTD SVG 1.1 Basic//EN" "http://www.w3.org/Graphics/SVG/1.1/DTD/svg11-basic.dtd" [
	<!ENTITY ns_flows "http://ns.adobe.com/Flows/1.0/">
	<!ENTITY ns_extend "http://ns.adobe.com/Extensibility/1.0/">
	<!ENTITY ns_ai "http://ns.adobe.com/AdobeIllustrator/10.0/">
	<!ENTITY ns_graphs "http://ns.adobe.com/Graphs/1.0/">
]>
<svg version="1.1" baseProfile="basic" id="Layer_1" xmlns:x="&ns_extend;" xmlns:i="&ns_ai;" xmlns:graph="&ns_graphs;"
	 xmlns="http://www.w3.org/2000/svg" xmlns:xlink="http://www.w3.org/1999/xlink" xmlns:a="http://ns.adobe.com/AdobeSVGViewerExtensions/3.0/"
	 x="0px" y="0px" width="100px" height="100px" viewBox="0 0 100 100" xml:space="preserve">
<g id="support_1_">
	<g id="gifts_2_">
		<path fill="none" stroke="#FFFFFF" stroke-width="3" stroke-miterlimit="10" d="M81.957,96.42c0,0.971-0.795,1.766-1.766,1.766
			H11.545c-0.971,0-1.766-0.795-1.766-1.766V64.738c0-0.971,0-2.561,0-3.532v-4.485c0-0.971,0-2.561,0-3.532v-8.972
			c0-0.971,0.795-1.766,1.766-1.766h68.646c0.971,0,1.766,0.795,1.766,1.766V96.42z"/>
		<path fill="none" stroke="#FFFFFF" stroke-width="3" stroke-linecap="round" stroke-miterlimit="10" d="M45.878,40.704
			c-0.29-6.402-16.01-23.76-23.1-14.449C11.456,41.125,46.09,40.489,46.096,40.49c0,0-3.622-21.187-13.634-22.619"/>
		<path fill="none" stroke="#FFFFFF" stroke-width="3" stroke-linecap="round" stroke-miterlimit="10" d="M46.025,40.835
			c0,0,32.064,1.401,21.884-14.104c-7.22-11.003-18.377,5.858-22.321,12.029c0,0-1.148-16.142,10.998-20.889"/>
		<line fill="none" stroke="#FFFFFF" stroke-width="3" stroke-miterlimit="10" x1="9.779" y1="53.913" x2="81.957" y2="53.913"/>
		<line fill="none" stroke="#FFFFFF" stroke-width="3" stroke-miterlimit="10" x1="9.64" y1="59.618" x2="82.071" y2="59.618"/>
		
			<line fill="none" stroke="#FFFFFF" stroke-width="3" stroke-linecap="round" stroke-miterlimit="10" x1="40.473" y1="42.424" x2="40.473" y2="98.152"/>
		
			<line fill="none" stroke="#FFFFFF" stroke-width="3" stroke-linecap="round" stroke-miterlimit="10" x1="51.321" y1="42.568" x2="51.321" y2="98.041"/>
	</g>
</g>
<g id="reteus_2_">
	<g id="rate_us_2_">
		<path fill="#FFFFFF" d="M79.289,33.265l0.666-4.045l-3.437-3.463c0,0-0.214-0.697,0.25-0.858c0.369-0.128,4.862-0.626,4.862-0.626
			l1.966-4.272c0,0,0.178-0.327,0.59-0.304c0.322,0.018,0.429,0.179,0.429,0.179l2.181,4.505l2.807,0.34c0,0,1.465,0.121,1.877,0.25
			c0.572,0.179,0.556,0.743,0.375,0.983s-3.379,3.128-3.379,3.128l0.786,5.005c0,0,0.161,0.465-0.357,0.479
			c-0.162,0.005-0.871-0.39-0.871-0.39l-3.759-1.948c0,0-3.554,1.947-3.647,2.002c-1.943,1.162-1.336-1.078-1.336-1.078"/>
	</g>
</g>
<g id="reteus_1_">
	<g id="rate_us_1_">
		<path fill="#FFFFFF" d="M68.074,20.31l0.666-4.045l-3.437-3.463c0,0-0.214-0.697,0.25-0.858c0.369-0.128,4.862-0.626,4.862-0.626
			l1.966-4.272c0,0,0.178-0.327,0.59-0.304c0.322,0.018,0.429,0.179,0.429,0.179l2.181,4.505l2.807,0.34c0,0,1.465,0.121,1.877,0.25
			c0.572,0.179,0.556,0.743,0.375,0.983c-0.18,0.24-3.379,3.128-3.379,3.128l0.786,5.005c0,0,0.161,0.465-0.357,0.479
			c-0.162,0.005-0.871-0.39-0.871-0.39l-3.759-1.948c0,0-3.554,1.947-3.647,2.002c-1.943,1.162-1.336-1.078-1.336-1.078"/>
	</g>
</g>
<g id="reteus_5_">
	<g id="rate_us_5_">
		<path fill="#FFFFFF" d="M84.01,16.537l0.666-4.045L81.24,9.029c0,0-0.214-0.697,0.25-0.858c0.369-0.128,4.862-0.626,4.862-0.626
			l1.966-4.272c0,0,0.178-0.327,0.59-0.304c0.322,0.018,0.429,0.179,0.429,0.179l2.181,4.505l2.807,0.34c0,0,1.465,0.121,1.877,0.25
			c0.572,0.179,0.556,0.743,0.375,0.983c-0.18,0.24-3.379,3.128-3.379,3.128l0.786,5.005c0,0,0.161,0.465-0.357,0.479
			c-0.162,0.005-0.871-0.39-0.871-0.39l-3.759-1.948c0,0-3.554,1.947-3.647,2.002c-1.943,1.162-1.336-1.078-1.336-1.078"/>
	</g>
</g>
</svg>
