<?xml version="1.0" encoding="utf-8"?>
<!-- Generator: Adobe Illustrator 16.0.0, SVG Export Plug-In . SVG Version: 6.00 Build 0)  -->
<!DOCTYPE svg PUBLIC "-//W3C//DTD SVG 1.1//EN" "http://www.w3.org/Graphics/SVG/1.1/DTD/svg11.dtd">
<svg version="1.1" id="Layer_1" xmlns="http://www.w3.org/2000/svg" xmlns:xlink="http://www.w3.org/1999/xlink" x="0px" y="0px"
	 width="28px" height="28px" viewBox="0 0 28 28" enable-background="new 0 0 28 28" xml:space="preserve">
<circle fill="#FFFFFF" stroke="#27AAE1" stroke-miterlimit="10" cx="14" cy="14" r="13"/>
<g>
	<path fill-rule="evenodd" clip-rule="evenodd" fill="#27AAE1" d="M7.282,21.932c-0.196-1.244-0.392-2.469-0.584-3.693
		c-0.202-1.287-0.406-2.572-0.596-3.861c-0.034-0.238-0.133-0.316-0.359-0.289c-0.133,0.016-0.269,0.004-0.429,0.004
		c0-0.672,0-1.316,0-1.996c2.485,0,4.974,0,7.502,0c0,0.346,0,0.695,0,1.078c0.779,0,1.521,0,2.314,0c0-0.352,0-0.711,0-1.09
		c2.543,0,5.035,0,7.555,0c0,0.652,0,1.299,0,1.955c-0.023,0.012-0.055,0.039-0.086,0.041c-0.67,0.049-0.662,0.049-0.768,0.729
		c-0.35,2.27-0.705,4.541-1.059,6.811c-0.016,0.096-0.043,0.191-0.068,0.312C16.244,21.932,11.787,21.932,7.282,21.932z
		 M7.293,15.404c0.677,0,1.332,0,1.999,0c0-0.445,0-0.867,0-1.289c-0.686,0-1.342,0-1.999,0C7.293,14.557,7.293,14.969,7.293,15.404
		z M20.68,14.117c-0.68,0-1.312,0-1.947,0c0,0.451,0,0.871,0,1.281c0.666,0,1.299,0,1.947,0C20.68,14.957,20.68,14.547,20.68,14.117
		z M7.977,20.773c0.46,0,0.882,0,1.315,0c0-0.445,0-0.867,0-1.291c-0.452,0-0.875,0-1.315,0C7.977,19.918,7.977,20.33,7.977,20.773z
		 M7.98,18.102c0.45,0,0.871,0,1.314,0c0-0.443,0-0.863,0-1.297c-0.448,0-0.87,0-1.314,0C7.98,17.238,7.98,17.648,7.98,18.102z
		 M13.36,15.402c0.442,0,0.862,0,1.295,0c0-0.445,0-0.863,0-1.285c-0.454,0-0.876,0-1.295,0C13.36,14.561,13.36,14.973,13.36,15.402
		z M17.328,14.123c-0.471,0-0.891,0-1.305,0c0,0.447,0,0.857,0,1.279c0.449,0,0.869,0,1.305,0
		C17.328,14.963,17.328,14.553,17.328,14.123z M11.977,15.406c0-0.445,0-0.867,0-1.289c-0.45,0-0.872,0-1.304,0
		c0,0.441,0,0.854,0,1.289C11.117,15.406,11.539,15.406,11.977,15.406z M11.982,18.104c0-0.451,0-0.863,0-1.299
		c-0.441,0-0.863,0-1.302,0c0,0.441,0,0.861,0,1.299C11.122,18.104,11.534,18.104,11.982,18.104z M14.656,18.102
		c0-0.445,0-0.865,0-1.287c-0.452,0-0.872,0-1.295,0c0,0.443,0,0.854,0,1.287C13.795,18.102,14.206,18.102,14.656,18.102z
		 M17.318,18.104c0-0.453,0-0.873,0-1.287c-0.451,0-0.873,0-1.297,0c0,0.447,0,0.857,0,1.287
		C16.457,18.104,16.869,18.104,17.318,18.104z M20.029,16.805c-0.443,0-0.865,0-1.301,0c0,0.445,0,0.865,0,1.289
		c0.453,0,0.877,0,1.301,0C20.029,17.65,20.029,17.238,20.029,16.805z M10.685,19.477c0,0.459,0,0.877,0,1.293
		c0.455,0,0.875,0,1.289,0c0-0.447,0-0.867,0-1.293C11.532,19.477,11.12,19.477,10.685,19.477z M14.667,19.48
		c-0.444,0-0.866,0-1.307,0c0,0.443,0,0.863,0,1.297c0.443,0,0.865,0,1.307,0C14.667,20.346,14.667,19.934,14.667,19.48z
		 M16.016,20.768c0.451,0,0.883,0,1.314,0c0-0.441,0-0.854,0-1.277c-0.451,0-0.883,0-1.314,0
		C16.016,19.932,16.016,20.344,16.016,20.768z M20.049,19.48c-0.465,0-0.889,0-1.326,0c0,0.441,0,0.861,0,1.297
		c0.445,0,0.867,0,1.305,0c0.008-0.064,0.02-0.111,0.02-0.156C20.049,20.254,20.049,19.887,20.049,19.48z"/>
	<path fill-rule="evenodd" clip-rule="evenodd" fill="#27AAE1" d="M19.328,9.453c-1.152,0.031-2.156,0.555-3.26,0.926
		c0.314-0.449,0.619-0.783,1.123-0.986c1.102-0.445,2.168-0.979,3.242-1.492c0.213-0.102,0.393-0.271,0.562-0.471
		c-0.986,0.006-1.854,0.436-2.77,0.699c0.832-0.688,1.676-1.367,2.82-1.424c0.695-0.033,1.137,0.488,1.139,1.301
		c0.002,0.789-0.232,1.525-0.533,2.244c-0.49,1.16-0.49,1.154-1.746,1.146c-1.361-0.01-2.725-0.002-4.099-0.033
		C17.018,10.791,18.291,10.344,19.328,9.453z"/>
	<path fill-rule="evenodd" clip-rule="evenodd" fill="#27AAE1" d="M13.349,12.689c0-2.219,0-4.406,0-6.621c0.423,0,0.833,0,1.272,0
		c0,2.203,0,4.396,0,6.621C14.208,12.689,13.798,12.689,13.349,12.689z"/>
	<path fill-rule="evenodd" clip-rule="evenodd" fill="#27AAE1" d="M7.314,11.377c0-0.893,0-1.75,0-2.643c1.315,0,2.621,0,3.948,0
		c0,0.879,0,1.748,0,2.643C9.955,11.377,8.658,11.377,7.314,11.377z M10.928,9.084c-0.331-0.088-0.599-0.035-0.821,0.242
		C9.885,9.604,9.63,9.852,9.339,10.168C9.047,9.852,8.789,9.607,8.572,9.33C8.316,9.004,8.009,9.004,7.679,9.086
		C7.566,9.447,7.704,9.688,7.956,9.912c0.339,0.301,0.647,0.637,0.971,0.957c0.263,0.26,0.559,0.26,0.825-0.002
		c0.297-0.293,0.574-0.609,0.892-0.879C10.932,9.744,11.025,9.467,10.928,9.084z"/>
</g>
</svg>
