<?xml version="1.0" encoding="utf-8"?>
<!-- Generator: Adobe Illustrator 16.0.0, SVG Export Plug-In . SVG Version: 6.00 Build 0)  -->
<!DOCTYPE svg PUBLIC "-//W3C//DTD SVG 1.1//EN" "http://www.w3.org/Graphics/SVG/1.1/DTD/svg11.dtd">
<svg version="1.1" id="Layer_1" xmlns="http://www.w3.org/2000/svg" xmlns:xlink="http://www.w3.org/1999/xlink" x="0px" y="0px"
	 width="48px" height="48px" viewBox="0 0 48 48" enable-background="new 0 0 48 48" xml:space="preserve">
<circle fill="#2C82C8" cx="24" cy="24" r="23.75"/>
<g>
	<g>
		<path fill="#FFFFFF" d="M21.545,20.45h5.083v0.011c-0.299,0.457-0.471,0.702-0.508,0.732h-1.358
			c0.188,0.217,0.313,0.48,0.382,0.791h1.447c0.018,0.003,0.027,0.01,0.027,0.02c-0.326,0.481-0.49,0.723-0.498,0.723H25.18
			c-0.02,0.248-0.139,0.545-0.358,0.894c-0.289,0.352-0.565,0.581-0.83,0.685c-0.494,0.234-0.965,0.353-1.416,0.353v0.009
			c0,0.035,0.112,0.179,0.333,0.434l2.509,2.996v0.141c0,0.015-0.008,0.022-0.027,0.022h-1.104
			c-1.985-2.291-2.979-3.442-2.979-3.451v-0.696l0.011-0.025c0.176,0.024,0.383,0.036,0.618,0.036c1.113,0,1.806-0.356,2.077-1.072
			c0.041-0.105,0.062-0.212,0.062-0.324h-3.021c-0.012,0-0.021-0.008-0.021-0.021c0.334-0.481,0.504-0.721,0.512-0.721h2.398v-0.011
			c-0.138-0.275-0.403-0.49-0.797-0.644c-0.282-0.09-0.536-0.136-0.763-0.136h-1.341v-0.025
			C21.367,20.689,21.536,20.45,21.545,20.45z"/>
	</g>
	<path fill="#FFFFFF" d="M29.85,10.178H18.149c-1.092,0-1.978,0.885-1.978,1.979v23.688c0,1.092,0.885,1.979,1.978,1.979H29.85
		c1.092,0,1.979-0.887,1.979-1.979V12.156C31.828,11.063,30.941,10.178,29.85,10.178 M22.471,11.758h3.04
		c0.35,0,0.632,0.282,0.632,0.632c0,0.349-0.282,0.643-0.632,0.643h-3.04c-0.348,0-0.631-0.294-0.631-0.643
		C21.84,12.04,22.123,11.758,22.471,11.758 M23.991,36.781c-0.706,0-1.278-0.572-1.278-1.278s0.572-1.277,1.278-1.277
		s1.276,0.571,1.276,1.277S24.697,36.781,23.991,36.781 M29.648,32.239c0,0.629-0.51,1.139-1.139,1.139h-9.055
		c-0.629,0-1.139-0.51-1.139-1.139V15.749c0-0.629,0.51-1.139,1.139-1.139h9.055c0.629,0,1.139,0.509,1.139,1.139V32.239z"/>
</g>
<rect x="-282" y="-282" fill="none" width="612" height="612"/>
</svg>
