<?xml version="1.0" encoding="utf-8"?>
<!-- Generator: Adobe Illustrator 16.0.0, SVG Export Plug-In . SVG Version: 6.00 Build 0)  -->
<!DOCTYPE svg PUBLIC "-//W3C//DTD SVG 1.1//EN" "http://www.w3.org/Graphics/SVG/1.1/DTD/svg11.dtd">
<svg version="1.1" id="Layer_1" xmlns="http://www.w3.org/2000/svg" xmlns:xlink="http://www.w3.org/1999/xlink" x="0px" y="0px"
	 width="28px" height="28px" viewBox="0 0 28 28" enable-background="new 0 0 28 28" xml:space="preserve">
<circle fill="#FFFFFF" stroke="#41A85F" stroke-miterlimit="10" cx="14" cy="14" r="13"/>
<g>
	<path fill="#41A85F" d="M13.05,7.756c-0.722-0.72-1.661-1.083-2.604-1.097c-0.419-0.007-0.626,0.51-0.33,0.806l1.446,1.448
		c0.341,0.34,0.547,0.685-0.48,1.713l-0.467,0.468c-0.946,0.943-1.371,0.817-1.712,0.479l-1.463-1.463
		c-0.295-0.295-0.809-0.087-0.808,0.329c0.004,0.955,0.37,1.906,1.098,2.636c1.061,1.059,2.593,1.352,3.92,0.882
		c0.229-0.082,0.49-0.003,0.661,0.177l6.39,6.731c0.593,0.623,1.588,0.637,2.194,0.027l0.022-0.023
		c0.614-0.613,0.598-1.608-0.034-2.2l-6.767-6.358c-0.179-0.167-0.259-0.423-0.179-0.658C14.396,10.334,14.103,8.812,13.05,7.756
		 M20.185,20.211c-0.241,0.24-0.631,0.24-0.87,0c-0.242-0.242-0.242-0.63,0-0.872c0.239-0.239,0.629-0.239,0.87,0
		C20.427,19.581,20.427,19.969,20.185,20.211"/>
</g>
</svg>
