<?xml version="1.0" encoding="utf-8"?>
<!-- Generator: Adobe Illustrator 16.0.0, SVG Export Plug-In . SVG Version: 6.00 Build 0)  -->
<!DOCTYPE svg PUBLIC "-//W3C//DTD SVG 1.1//EN" "http://www.w3.org/Graphics/SVG/1.1/DTD/svg11.dtd">
<svg version="1.1" id="Layer_1" xmlns="http://www.w3.org/2000/svg" xmlns:xlink="http://www.w3.org/1999/xlink" x="0px" y="0px"
	 width="30px" height="30px" viewBox="0 0 30 30" enable-background="new 0 0 30 30" xml:space="preserve">
<g id="clock">
	<g>
		<path fill="#1352E2" d="M21.306,14.311h-5.623l0.001-4.396c0-0.375-0.305-0.679-0.68-0.679c-0.389,0-0.693,0.304-0.693,0.678
			v5.233c0,0.295,0.239,0.533,0.534,0.533h6.46c0.375,0,0.68-0.304,0.68-0.679C21.984,14.615,21.681,14.311,21.306,14.311z
			 M14.999,4.461c-5.817,0-10.55,4.726-10.55,10.535c0,5.81,4.732,10.537,10.55,10.537c5.818,0,10.552-4.727,10.552-10.537
			C25.551,9.187,20.817,4.461,14.999,4.461z M14.999,24.164c-5.061,0-9.178-4.113-9.178-9.167c0-5.054,4.118-9.166,9.178-9.166
			c5.062,0,9.181,4.112,9.181,9.166C24.18,20.051,20.061,24.164,14.999,24.164z M14.999,1.01c-7.721,0-14.003,6.274-14.003,13.986
			c0,7.71,6.282,13.994,14.003,13.994c7.722,0,14.005-6.283,14.005-13.994C29.004,7.285,22.721,1.01,14.999,1.01z M14.999,27.613
			c-6.965,0-12.631-5.66-12.631-12.617C2.368,8.04,8.034,2.38,14.999,2.38c6.967,0,12.634,5.659,12.634,12.616
			C27.633,21.953,21.966,27.613,14.999,27.613z"/>
	</g>
</g>
</svg>
