<?xml version="1.0" encoding="utf-8"?>
<!-- Generator: Adobe Illustrator 16.0.0, SVG Export Plug-In . SVG Version: 6.00 Build 0)  -->
<!DOCTYPE svg PUBLIC "-//W3C//DTD SVG 1.1//EN" "http://www.w3.org/Graphics/SVG/1.1/DTD/svg11.dtd">
<svg version="1.1" id="Layer_1" xmlns="http://www.w3.org/2000/svg" xmlns:xlink="http://www.w3.org/1999/xlink" x="0px" y="0px"
	 width="100px" height="100px" viewBox="0 0 100 100" enable-background="new 0 0 100 100" xml:space="preserve">
<g>
	<circle fill="#91D8F0" cx="50" cy="50" r="49.333"/>
	<ellipse fill="#EAEAEA" cx="50" cy="80.964" rx="35.176" ry="6.652"/>
	<g>
		<path fill="#EF4D4D" d="M50,6.137c-7.221,0-13.076,5.854-13.076,13.076c0,7.223,8.321,16.643,13.076,22.587
			c4.755-5.944,13.076-15.364,13.076-22.587C63.076,11.991,57.223,6.137,50,6.137z M50,23.968c-2.626,0-4.755-2.129-4.755-4.755
			s2.129-4.755,4.755-4.755s4.755,2.129,4.755,4.755S52.626,23.968,50,23.968z"/>
		<path opacity="0.15" fill="#FFFFFF" d="M50,23.955c-2.626,0-4.755-2.129-4.755-4.755h-2.378c0,3.939,3.194,7.133,7.133,7.133
			s7.132-3.193,7.132-7.133h-2.377C54.755,21.826,52.626,23.955,50,23.955z"/>
		<path opacity="0.15" d="M50,14.445c2.626,0,4.755,2.129,4.755,4.755h2.377c0-3.939-3.193-7.133-7.132-7.133
			s-7.133,3.193-7.133,7.133h2.378C45.245,16.574,47.374,14.445,50,14.445z"/>
	</g>
	<g>
		<path fill="#3DB39E" d="M54.092,52.35l31.1-8.246c1.062-0.281,2.159,0.344,2.445,1.397l5.169,19.086
			c0.285,1.055-0.347,2.14-1.413,2.421L50.887,77.751c-1.065,0.28-2.161-0.344-2.446-1.396l-3.798-14.023L54.092,52.35L54.092,52.35
			z"/>
		<path fill="#78CABB" d="M87.369,63.975l-6.718,1.801c-0.53,0.143-1.075-0.173-1.216-0.704c-0.146-0.529,0.17-1.075,0.698-1.216
			l5.76-1.544L82.81,50.799l-5.758,1.541c-0.53,0.14-1.074-0.173-1.218-0.702c-0.143-0.529,0.173-1.075,0.703-1.218l6.719-1.8
			c0.529-0.144,1.071,0.172,1.216,0.703l3.6,13.434C88.215,63.288,87.899,63.832,87.369,63.975z M59.54,71.432l-6.718,1.8
			c-0.531,0.142-1.075-0.174-1.218-0.701l-3.6-13.436c-0.143-0.529,0.174-1.075,0.703-1.219l6.716-1.799
			c0.531-0.142,1.075,0.172,1.22,0.703c0.141,0.529-0.174,1.075-0.705,1.218l-5.757,1.544l3.084,11.514l5.758-1.544
			c0.53-0.141,1.076,0.174,1.219,0.705C60.383,70.745,60.069,71.291,59.54,71.432L59.54,71.432z"/>
		<path fill="#5ABEAC" d="M35.283,61.83c8.853-5.08,37.022-21.592,37.022-21.592c0.955-0.548,2.175-0.229,2.724,0.716l9.932,17.101
			c0.548,0.943,0.219,2.155-0.738,2.702L47.878,81.614c-0.955,0.551-2.177,0.228-2.726-0.714c0,0-2.845-5.857-5.634-10.662
			L35.283,61.83z"/>
		<path fill="#8CD2C5" d="M53.606,71.554l-5.161,2.979l-5.961-10.324l5.162-2.982c0.476-0.273,0.637-0.882,0.364-1.355
			c-0.275-0.477-0.882-0.636-1.357-0.366l-6.023,3.479c-0.475,0.276-0.638,0.882-0.362,1.356l6.954,12.046
			c0.274,0.477,0.883,0.64,1.356,0.363l6.022-3.479c0.476-0.273,0.64-0.881,0.363-1.357C54.688,71.44,54.081,71.279,53.606,71.554z
			 M79.914,57.511L72.96,45.465c-0.273-0.476-0.883-0.638-1.355-0.363l-6.021,3.477c-0.479,0.275-0.641,0.882-0.366,1.356
			c0.275,0.477,0.883,0.641,1.358,0.365l5.162-2.98l5.961,10.324l-5.163,2.98c-0.475,0.275-0.638,0.882-0.363,1.357
			c0.275,0.476,0.882,0.639,1.357,0.363l6.022-3.478C80.026,58.595,80.189,57.985,79.914,57.511z M56.115,54.044
			c-3.8,2.194-5.103,7.057-2.908,10.855c2.197,3.803,7.057,5.106,10.858,2.91c3.8-2.195,5.105-7.056,2.907-10.857
			C64.779,53.151,59.916,51.851,56.115,54.044z"/>
	</g>
	<g>
		<path fill="#475577" d="M18.18,81.308c-0.669-4.621-1.326-9.127-1.974-13.634c-0.5-3.483-0.98-6.971-1.493-10.452
			c-0.057-0.383-0.246-0.758-0.432-1.103c-0.51-0.956-1.029-1.903-1.58-2.832c-2.15-3.622-3.139-7.46-2.509-11.707
			c0.355-2.41,0.457-4.86,0.611-7.296c0.077-1.196,0.649-2.057,1.732-2.335c2.042-0.522,4.116-1.113,6.202-1.228
			c3.221-0.179,6.488-0.336,9.647,0.674c0.57,0.183,1.16,0.325,1.705,0.567c0.988,0.439,1.567,1.197,1.634,2.315
			c0.221,3.636,0.488,7.271,0.646,10.906c0.038,0.854-0.158,1.768-0.464,2.571c-0.679,1.793-1.372,3.598-2.281,5.278
			c-1.338,2.471-2.03,5.073-2.388,7.842c-0.831,6.467-1.795,12.916-2.666,19.378c-0.106,0.791-0.367,1.098-1.191,1.07
			C21.668,81.268,19.955,81.308,18.18,81.308"/>
		<path fill="#475577" d="M26.544,23.634c-0.016,2.962-2.398,5.32-5.357,5.301c-2.973-0.02-5.306-2.372-5.308-5.353
			c-0.004-3.019,2.435-5.441,5.418-5.381C24.245,18.261,26.56,20.654,26.544,23.634"/>
	</g>
</g>
</svg>
