<?xml version="1.0" encoding="utf-8"?>
<!-- Generator: Adobe Illustrator 16.0.0, SVG Export Plug-In . SVG Version: 6.00 Build 0)  -->
<!DOCTYPE svg PUBLIC "-//W3C//DTD SVG 1.1//EN" "http://www.w3.org/Graphics/SVG/1.1/DTD/svg11.dtd">
<svg version="1.1" id="Layer_1" xmlns="http://www.w3.org/2000/svg" xmlns:xlink="http://www.w3.org/1999/xlink" x="0px" y="0px"
	 width="126px" height="126px" viewBox="0 0 126 126" enable-background="new 0 0 126 126" xml:space="preserve">
<g id="whatsapp">
	<g>
		<path fill="#22C064" d="M63,0.5C28.482,0.5,0.5,28.482,0.5,62.999S28.482,125.5,63,125.5c34.517,0,62.5-27.984,62.5-62.501
			S97.517,0.5,63,0.5z M63.547,86.045c-4.994,0-9.643-1.498-13.524-4.065l-9.447,3.024l3.07-9.128
			c-2.942-4.053-4.68-9.032-4.68-14.412c0-13.555,11.026-24.582,24.581-24.582c13.553,0,24.58,11.027,24.58,24.582
			C88.127,75.018,77.1,86.045,63.547,86.045z M77.391,68.174c-0.74-0.405-4.377-2.368-5.058-2.646
			c-0.684-0.276-1.181-0.421-1.71,0.315c-0.532,0.734-2.04,2.377-2.498,2.864s-0.901,0.533-1.642,0.126
			c-0.738-0.403-3.139-1.292-5.92-3.967c-2.166-2.08-3.585-4.606-3.998-5.376c-0.412-0.771-0.003-1.165,0.389-1.525
			c0.351-0.325,0.787-0.853,1.181-1.278c0.392-0.427,0.531-0.734,0.801-1.229c0.269-0.493,0.161-0.938-0.014-1.322
			c-0.174-0.384-1.543-4.15-2.115-5.682c-0.571-1.531-1.208-1.305-1.648-1.321c-0.439-0.017-0.939-0.098-1.442-0.116
			c-0.503-0.02-1.326,0.139-2.045,0.868c-0.719,0.727-2.735,2.478-2.873,6.187c-0.139,3.708,2.426,7.393,2.784,7.909
			c0.359,0.517,4.901,8.555,12.451,11.861c7.549,3.306,7.586,2.297,8.973,2.224s4.527-1.657,5.221-3.393
			c0.696-1.735,0.752-3.245,0.576-3.565C78.624,68.786,78.129,68.577,77.391,68.174z"/>
	</g>
</g>
</svg>
