<?xml version="1.0" encoding="utf-8"?>
<!-- Generator: Adobe Illustrator 17.1.0, SVG Export Plug-In . SVG Version: 6.00 Build 0)  -->
<!DOCTYPE svg PUBLIC "-//W3C//DTD SVG 1.1 Basic//EN" "http://www.w3.org/Graphics/SVG/1.1/DTD/svg11-basic.dtd" [
	<!ENTITY ns_flows "http://ns.adobe.com/Flows/1.0/">
	<!ENTITY ns_extend "http://ns.adobe.com/Extensibility/1.0/">
	<!ENTITY ns_ai "http://ns.adobe.com/AdobeIllustrator/10.0/">
	<!ENTITY ns_graphs "http://ns.adobe.com/Graphs/1.0/">
]>
<svg version="1.1" baseProfile="basic" id="Layer_1" xmlns:x="&ns_extend;" xmlns:i="&ns_ai;" xmlns:graph="&ns_graphs;"
	 xmlns="http://www.w3.org/2000/svg" xmlns:xlink="http://www.w3.org/1999/xlink" xmlns:a="http://ns.adobe.com/AdobeSVGViewerExtensions/3.0/"
	 x="0px" y="0px" width="100px" height="100px" viewBox="0 0 100 100" xml:space="preserve">
<g>
	<ellipse fill="#BDC3C8" cx="50" cy="77.39" rx="49.012" ry="9.61"/>
	<g>
		<path fill="#205081" d="M28.038,45.878c-0.002-8.506-0.012-17.013,0.002-25.519c0.008-5.056,2.325-7.352,7.383-7.354
			c9.85-0.005,19.699-0.007,29.549,0c4.542,0.004,6.975,2.402,6.98,6.987c0.02,17.461,0.021,34.921-0.002,52.382
			c-0.006,4.304-2.514,6.768-6.803,6.775c-10.105,0.017-20.211,0.025-30.316,0.011c-4.286-0.006-6.769-2.483-6.783-6.802
			C28.019,63.531,28.039,54.705,28.038,45.878z M68.655,42.854c0-4.287,0.024-8.575-0.007-12.862
			c-0.029-4.041-2.563-6.543-6.623-6.55c-7.935-0.014-15.87-0.01-23.804,0.005c-4.388,0.008-6.831,2.342-6.855,6.68
			c-0.049,8.638-0.048,17.277-0.015,25.916c0.016,4.101,2.515,6.534,6.618,6.542c7.999,0.016,15.998,0.013,23.996,0.002
			c4.159-0.006,6.655-2.484,6.688-6.679C68.686,51.557,68.66,47.205,68.655,42.854z M50.033,76.874
			c3.259-0.016,5.697-2.443,5.718-5.693c0.02-3.21-2.661-5.838-5.886-5.772c-3.128,0.065-5.676,2.708-5.632,5.841
			C44.279,74.46,46.785,76.89,50.033,76.874z M50.022,19.32c0,0.005,0,0.01,0,0.015c1.975,0,3.963,0.132,5.917-0.066
			c0.759-0.077,1.443-0.901,2.16-1.384c-0.7-0.581-1.381-1.635-2.104-1.665c-4.006-0.164-8.025-0.156-12.033-0.009
			c-0.71,0.026-1.385,0.988-2.076,1.518c0.673,0.53,1.307,1.443,2.028,1.518C45.931,19.457,47.984,19.32,50.022,19.32z"/>
		<path fill="#F1F2F2" d="M68.658,42.854c0.003,4.351,0.029,8.703-0.005,13.054c-0.032,4.195-2.528,6.673-6.688,6.679
			c-7.999,0.011-15.998,0.014-23.996-0.002c-4.104-0.008-6.602-2.441-6.618-6.542c-0.034-8.638-0.034-17.277,0.015-25.916
			c0.024-4.338,2.467-6.672,6.855-6.68c7.935-0.015,15.87-0.019,23.804-0.005c4.06,0.007,6.594,2.51,6.623,6.55
			C68.679,34.279,68.655,38.567,68.658,42.854z"/>
		<path fill="#F1F2F2" d="M50.033,76.874c-3.249,0.016-5.755-2.414-5.801-5.624c-0.045-3.133,2.504-5.777,5.632-5.841
			c3.226-0.067,5.907,2.562,5.886,5.772C55.731,74.431,53.293,76.858,50.033,76.874z"/>
		<path fill="#F1F2F2" d="M50.022,19.32c-2.038,0-4.09,0.137-6.107-0.073c-0.721-0.075-1.354-0.988-2.028-1.518
			c0.691-0.53,1.366-1.492,2.076-1.518c4.007-0.148,8.027-0.156,12.033,0.009c0.723,0.03,1.404,1.084,2.104,1.665
			c-0.718,0.484-1.401,1.307-2.16,1.384c-1.954,0.198-3.943,0.066-5.917,0.066C50.022,19.33,50.022,19.325,50.022,19.32z"/>
		<g opacity="0.5">
			<path fill="#D1D3D4" d="M65.14,34.229c0,1.504-1.219,2.723-2.723,2.723H38.392c-1.504,0-2.723-1.219-2.723-2.723l0,0
				c0-1.504,1.219-2.723,2.723-2.723h24.026C63.921,31.506,65.14,32.726,65.14,34.229L65.14,34.229z"/>
			<path fill="#D1D3D4" d="M64.736,43.09c0,1.504-1.219,2.723-2.723,2.723H37.987c-1.504,0-2.723-1.219-2.723-2.723l0,0
				c0-1.504,1.219-2.723,2.723-2.723h24.026C63.517,40.367,64.736,41.586,64.736,43.09L64.736,43.09z"/>
			<path fill="#544099" d="M64.728,52.626c0,1.504-1.219,2.723-2.723,2.723H37.979c-1.504,0-2.723-1.219-2.723-2.723l0,0
				c0-1.504,1.219-2.723,2.723-2.723h24.026C63.508,49.903,64.728,51.122,64.728,52.626L64.728,52.626z"/>
		</g>
	</g>
</g>
</svg>
