<?xml version="1.0" encoding="utf-8"?>
<!-- Generator: Adobe Illustrator 16.0.0, SVG Export Plug-In . SVG Version: 6.00 Build 0)  -->
<!DOCTYPE svg PUBLIC "-//W3C//DTD SVG 1.1//EN" "http://www.w3.org/Graphics/SVG/1.1/DTD/svg11.dtd">
<svg version="1.1" id="Layer_1" xmlns="http://www.w3.org/2000/svg" xmlns:xlink="http://www.w3.org/1999/xlink" x="0px" y="0px"
	 width="228px" height="228px" viewBox="0 0 228 228" enable-background="new 0 0 228 228" xml:space="preserve">
<g>
	<g>
		<path fill="#EEC75E" d="M114,0C51.041,0,0,51.037,0,114c0,62.958,51.041,114,114,114c62.963,0,114-51.042,114-114
			C228,51.037,176.963,0,114,0z"/>
	</g>
	<g>
		<path fill="#DB554A" d="M45.6,79.798l68.346,34.2l68.451-34.2v72.96l-68.646,34.202L45.6,152.758V79.798z"/>
	</g>
	<g>
		<path fill="#D15145" d="M45.6,152.758l68.151,34.202l0.195-0.098v-72.864L45.6,79.798V152.758z"/>
	</g>
	<g>
		<path fill="#C64B43" d="M45.6,86.592v21.286l68.135,33.482l68.665-33.498V86.59l-68.454,33.489L45.6,86.592z"/>
	</g>
	<g>
		<path fill="#BC4A3F" d="M45.6,86.592v21.286l68.135,33.482l0.211-21.281L45.6,86.592z"/>
	</g>
	<g>
		<path fill="#EA6359" d="M41.04,77.376L114,41.075l72.96,36.302l-0.04,4.804L114,118.524L41.068,82.232L41.04,77.376z"/>
	</g>
	<g>
		<path fill="#E2584C" d="M41.04,77.518l72.906,35.721l73.014-35.721v23.56L113.735,136.8L41.04,101.079V77.518z"/>
	</g>
	<g>
		<path fill="#D65348" d="M113.946,113.238L113.946,113.238L41.04,77.518v23.562l72.695,35.721l0.211-0.104V113.238z"/>
	</g>
	<g>
		<path fill="#F0EFEF" d="M141.36,99.826v73.378l18.239-9.089V90.904L141.36,99.826z"/>
	</g>
	<g>
		<path fill="#E8E8E8" d="M68.4,90.922V164.2l18.24,9.155V99.859L68.4,90.922z"/>
	</g>
	<g>
		<path fill="#FFFFFF" d="M134.858,77.317c14.74-3.794,22.457-11.419,22.457-18.851c0-2.078-0.445-4.107-1.482-5.96
			c-2.437-4.336-7.504-6.926-13.538-6.926c-13.76,0-23.513,12.911-28.302,21.06c-4.798-8.141-14.546-20.979-28.276-20.979
			c-8.708,0-15.026,5.388-15.026,12.698c0,9.312,7.39,16.278,22.139,19.476L68.4,90.922l18.24,8.935l27.694-15.449l27.026,15.418
			l18.239-8.924L134.858,77.317z M139.183,57.009c2.573,0,4.439,1.438,4.439,3.416c0,1.549-1.14,3.97-4.34,6.126
			c-2.438,1.646-6.722,3.555-13.855,4.151C128.09,65.083,132.988,57.009,139.183,57.009z M84.38,60.424
			c0-1.977,1.866-3.416,4.438-3.416c6.194,0,11.096,8.074,13.76,13.693c-7.137-0.599-11.419-2.505-13.86-4.151
			C85.52,64.395,84.38,61.975,84.38,60.424z"/>
	</g>
	<g>
		<path fill="#FFFFFF" d="M92.829,77.938c-0.128-0.016-11.515-1.548-18.063-8.855l0.149-0.134c6.499,7.253,17.811,8.775,17.924,8.79
			l42.017-0.519l0.002,0.2L92.829,77.938z"/>
	</g>
	<g>
		<rect x="92.826" y="77.476" fill="#FFFFFF" width="42.034" height="0.2"/>
	</g>
	<g>
		<path fill="#FFFFFF" d="M130.125,49.098c9.997-6.334,20.925-3.404,24.797,2.029c3.872,5.434,3.686,12.144-3.413,18.217
			c-7.101,6.074-16.65,7.974-16.65,7.974l-42.035,0.518c0,0-11.389-1.455-17.987-8.821c-6.597-7.367-3.396-14.846-3.396-14.846
			c1.548-2.333,4.366-9.993,18.49-8.091c14.125,1.901,24.057,20.563,24.057,20.563S120.128,55.434,130.125,49.098z M102.578,70.965
			c0,0-5-12.184-11.578-13.621c-6.578-1.436-6.622,3.081-6.622,3.081c1.375,9.125,18.196,10.278,18.196,10.278 M125.493,70.702
			c0,0,16.824-1.153,18.196-10.278c0,0-0.05-4.517-6.62-3.081c-6.575,1.438-11.576,13.621-11.576,13.621"/>
	</g>
	<g>
		<path fill="#469FCC" d="M114,0C51.041,0,0,51.037,0,114c0,62.958,51.041,114,114,114c62.963,0,114-51.042,114-114
			C228,51.037,176.963,0,114,0z"/>
	</g>
	<g>
		<path fill="#DB554A" d="M45.6,79.798l68.346,34.2l68.451-34.2v72.96l-68.646,34.202L45.6,152.758V79.798z"/>
	</g>
	<g>
		<path fill="#D15145" d="M45.6,152.758l68.151,34.202l0.195-0.098v-72.864L45.6,79.798V152.758z"/>
	</g>
	<g>
		<path fill="#C64B43" d="M45.6,86.592v21.286l68.135,33.482l68.665-33.498V86.59l-68.454,33.489L45.6,86.592z"/>
	</g>
	<g>
		<path fill="#BC4A3F" d="M45.6,86.592v21.286l68.135,33.482l0.211-21.281L45.6,86.592z"/>
	</g>
	<g>
		<path fill="#EA6359" d="M41.04,77.376L114,41.075l72.96,36.302l-0.04,4.804L114,118.524L41.068,82.232L41.04,77.376z"/>
	</g>
	<g>
		<path fill="#E2584C" d="M41.04,77.518l72.906,35.721l73.014-35.721v23.56L113.735,136.8L41.04,101.079V77.518z"/>
	</g>
	<g>
		<path fill="#D65348" d="M113.946,113.238L113.946,113.238L41.04,77.518v23.562l72.695,35.721l0.211-0.104V113.238z"/>
	</g>
	<g>
		<path fill="#FFFFFF" d="M92.829,77.938c-0.128-0.016-11.515-1.548-18.063-8.855l0.149-0.134c6.499,7.253,17.811,8.775,17.924,8.79
			l42.017-0.519l0.002,0.2L92.829,77.938z"/>
	</g>
	<g>
		<rect x="92.826" y="77.476" fill="#FFFFFF" width="42.034" height="0.2"/>
	</g>
	<g>
		<g>
			<path fill="#C64B43" d="M143.701,121.141c0,2.737-2.22,6.059-4.956,7.419c-2.737,1.36-4.956,0.243-4.956-2.493
				c0-2.737,2.219-6.059,4.956-7.419C141.481,117.288,143.701,118.404,143.701,121.141z"/>
		</g>
		<g>
			<path fill="#C64B43" d="M167.17,109.478c0,2.737-2.219,6.059-4.956,7.419c-2.736,1.36-4.956,0.244-4.956-2.493
				s2.22-6.059,4.956-7.419C164.951,105.624,167.17,106.741,167.17,109.478z"/>
		</g>
		<g>
			<path fill="#C64B43" d="M143.701,151.16c0,2.737-2.22,6.059-4.956,7.419c-2.737,1.36-4.956,0.244-4.956-2.493
				c0-2.736,2.219-6.058,4.956-7.418C141.481,147.308,143.701,148.423,143.701,151.16z"/>
		</g>
		<g>
			<path fill="#C64B43" d="M167.17,139.497c0,2.737-2.219,6.059-4.956,7.419c-2.736,1.359-4.956,0.244-4.956-2.493
				s2.22-6.059,4.956-7.418C164.951,135.644,167.17,136.76,167.17,139.497z"/>
		</g>
		<g>
			<path fill="#C64B43" d="M131.967,112.65c0,2.736-2.22,6.059-4.956,7.419c-2.738,1.36-4.955,0.243-4.955-2.493
				c0-2.737,2.217-6.058,4.955-7.419C129.747,108.798,131.967,109.914,131.967,112.65z"/>
		</g>
		<g>
			<g>
				<path fill="#C64B43" d="M155.436,100.987c0,2.736-2.22,6.059-4.956,7.418s-4.956,0.244-4.956-2.493
					c0-2.737,2.22-6.059,4.956-7.419S155.436,98.25,155.436,100.987z"/>
			</g>
			<g>
				<path fill="#C64B43" d="M178.903,89.324c0,2.736-2.217,6.057-4.955,7.418c-2.736,1.36-4.956,0.244-4.956-2.492
					c0-2.737,2.22-6.06,4.956-7.419C176.687,85.47,178.903,86.587,178.903,89.324z"/>
			</g>
		</g>
		<g>
			<path fill="#C64B43" d="M131.967,169.287c0,2.736-2.22,6.058-4.956,7.418c-2.738,1.36-4.955,0.244-4.955-2.493
				c0-2.737,2.217-6.058,4.955-7.418C129.747,165.434,131.967,166.55,131.967,169.287z"/>
		</g>
		<g>
			<g>
				<path fill="#C64B43" d="M155.436,157.623c0,2.736-2.22,6.059-4.956,7.418s-4.956,0.244-4.956-2.492
					c0-2.737,2.22-6.059,4.956-7.419S155.436,154.886,155.436,157.623z"/>
			</g>
			<g>
				<path fill="#C64B43" d="M178.903,145.96c0,2.736-2.217,6.057-4.955,7.417c-2.736,1.36-4.956,0.245-4.956-2.492
					c0-2.737,2.22-6.06,4.956-7.419C176.687,142.106,178.903,143.223,178.903,145.96z"/>
			</g>
		</g>
		<g>
			<path fill="#C64B43" d="M131.967,142.526c0,2.736-2.22,6.059-4.956,7.419c-2.738,1.36-4.955,0.243-4.955-2.493
				c0-2.737,2.217-6.058,4.955-7.419C129.747,138.674,131.967,139.789,131.967,142.526z"/>
		</g>
		<g>
			<g>
				<path fill="#C64B43" d="M155.436,130.863c0,2.736-2.22,6.059-4.956,7.418s-4.956,0.244-4.956-2.493
					c0-2.737,2.22-6.059,4.956-7.419S155.436,128.126,155.436,130.863z"/>
			</g>
			<g>
				<path fill="#C64B43" d="M178.903,119.2c0,2.736-2.217,6.057-4.955,7.418c-2.736,1.36-4.956,0.244-4.956-2.492
					c0-2.737,2.22-6.06,4.956-7.419C176.687,115.346,178.903,116.463,178.903,119.2z"/>
			</g>
		</g>
	</g>
	<g>
		<g>
			<path fill="#C64B43" d="M86.552,121.141c0,2.737,2.22,6.059,4.956,7.419c2.737,1.36,4.956,0.243,4.956-2.493
				c0-2.737-2.219-6.059-4.956-7.419C88.771,117.288,86.552,118.404,86.552,121.141z"/>
		</g>
		<g>
			<path fill="#C64B43" d="M63.083,109.478c0,2.737,2.219,6.059,4.956,7.419c2.736,1.36,4.956,0.244,4.956-2.493
				s-2.22-6.059-4.956-7.419C65.302,105.624,63.083,106.741,63.083,109.478z"/>
		</g>
		<g>
			<path fill="#C64B43" d="M86.552,151.16c0,2.737,2.22,6.059,4.956,7.419c2.737,1.36,4.956,0.244,4.956-2.493
				c0-2.736-2.219-6.058-4.956-7.418C88.771,147.308,86.552,148.423,86.552,151.16z"/>
		</g>
		<g>
			<path fill="#C64B43" d="M63.083,139.497c0,2.737,2.219,6.059,4.956,7.419c2.736,1.359,4.956,0.244,4.956-2.493
				s-2.22-6.059-4.956-7.418C65.302,135.644,63.083,136.76,63.083,139.497z"/>
		</g>
		<g>
			<path fill="#C64B43" d="M98.286,112.65c0,2.736,2.22,6.059,4.956,7.419c2.738,1.36,4.955,0.243,4.955-2.493
				c0-2.737-2.217-6.058-4.955-7.419C100.506,108.798,98.286,109.914,98.286,112.65z"/>
		</g>
		<g>
			<g>
				<path fill="#C64B43" d="M74.817,100.987c0,2.736,2.22,6.059,4.956,7.418s4.956,0.244,4.956-2.493
					c0-2.737-2.22-6.059-4.956-7.419S74.817,98.25,74.817,100.987z"/>
			</g>
			<g>
				<path fill="#C64B43" d="M51.35,89.324c0,2.736,2.217,6.057,4.955,7.418c2.736,1.36,4.956,0.244,4.956-2.492
					c0-2.737-2.22-6.06-4.956-7.419C53.566,85.47,51.35,86.587,51.35,89.324z"/>
			</g>
		</g>
		<g>
			<path fill="#C64B43" d="M98.286,169.287c0,2.736,2.22,6.058,4.956,7.418c2.738,1.36,4.955,0.244,4.955-2.493
				c0-2.737-2.217-6.058-4.955-7.418C100.506,165.434,98.286,166.55,98.286,169.287z"/>
		</g>
		<g>
			<g>
				<path fill="#C64B43" d="M74.817,157.623c0,2.736,2.22,6.059,4.956,7.418s4.956,0.244,4.956-2.492
					c0-2.737-2.22-6.059-4.956-7.419S74.817,154.886,74.817,157.623z"/>
			</g>
			<g>
				<path fill="#C64B43" d="M51.35,145.96c0,2.736,2.217,6.057,4.955,7.417c2.736,1.36,4.956,0.245,4.956-2.492
					c0-2.737-2.22-6.06-4.956-7.419C53.566,142.106,51.35,143.223,51.35,145.96z"/>
			</g>
		</g>
		<g>
			<path fill="#C64B43" d="M98.286,142.526c0,2.736,2.22,6.059,4.956,7.419c2.738,1.36,4.955,0.243,4.955-2.493
				c0-2.737-2.217-6.058-4.955-7.419C100.506,138.674,98.286,139.789,98.286,142.526z"/>
		</g>
		<g>
			<g>
				<path fill="#C64B43" d="M74.817,130.863c0,2.736,2.22,6.059,4.956,7.418s4.956,0.244,4.956-2.493
					c0-2.737-2.22-6.059-4.956-7.419S74.817,128.126,74.817,130.863z"/>
			</g>
			<g>
				<path fill="#C64B43" d="M51.35,119.2c0,2.736,2.217,6.057,4.955,7.418c2.736,1.36,4.956,0.244,4.956-2.492
					c0-2.737-2.22-6.06-4.956-7.419C53.566,115.346,51.35,116.463,51.35,119.2z"/>
			</g>
		</g>
	</g>
	<g>
		<path fill="#F0EFEF" d="M141.36,99.826v73.378l18.239-9.089V90.904L141.36,99.826z"/>
	</g>
	<g>
		<path fill="#E8E8E8" d="M68.4,90.922V164.2l18.24,9.155V99.859L68.4,90.922z"/>
	</g>
	<g>
		<g>
			<path fill="#C64B43" d="M92.782,74.127c2.724,1.332,2.722,3.493,0,4.825c-2.724,1.333-7.14,1.333-9.863,0
				c-2.724-1.332-2.724-3.493,0-4.825C85.641,72.794,90.058,72.794,92.782,74.127z"/>
		</g>
		<g>
			<path fill="#C64B43" d="M116.134,62.7c2.724,1.332,2.724,3.493,0,4.826c-2.723,1.332-7.139,1.332-9.863,0
				c-2.724-1.333-2.722-3.494,0-4.826C108.995,61.367,113.41,61.368,116.134,62.7z"/>
		</g>
		<g>
			<path fill="#C64B43" d="M122.651,88.742c2.724,1.332,2.723,3.494,0,4.826c-2.724,1.332-7.139,1.332-9.862,0
				c-2.724-1.333-2.724-3.493,0-4.826C115.513,87.41,119.928,87.41,122.651,88.742z"/>
		</g>
		<g>
			<path fill="#C64B43" d="M146.004,77.315c2.724,1.333,2.724,3.494,0,4.826c-2.723,1.332-7.14,1.333-9.863,0s-2.722-3.493,0-4.826
				C138.864,75.983,143.28,75.983,146.004,77.315z"/>
		</g>
		<g>
			<path fill="#C64B43" d="M66.854,72.866c2.722,1.333,2.722,3.494,0,4.826c-2.725,1.333-7.139,1.332-9.861,0
				c-2.723-1.333-2.726-3.493-0.001-4.826C59.714,71.534,64.131,71.534,66.854,72.866z"/>
		</g>
		<g>
			<g>
				<path fill="#C64B43" d="M90.207,61.44c2.722,1.332,2.722,3.493-0.001,4.825c-2.722,1.333-7.14,1.333-9.862,0
					c-2.724-1.333-2.723-3.494,0-4.826C83.066,60.108,87.483,60.107,90.207,61.44z"/>
			</g>
			<g>
				<path fill="#C64B43" d="M113.559,50.014c2.722,1.332,2.725,3.492,0,4.825c-2.723,1.333-7.141,1.333-9.863,0
					c-2.724-1.333-2.722-3.494,0-4.826C106.421,48.681,110.835,48.682,113.559,50.014z"/>
			</g>
		</g>
		<g>
			<path fill="#C64B43" d="M123.21,100.441c2.722,1.332,2.721,3.493-0.002,4.826c-2.725,1.333-7.138,1.333-9.861,0
				s-2.725-3.493,0-4.826C116.069,99.109,120.485,99.108,123.21,100.441z"/>
		</g>
		<g>
			<g>
				<path fill="#C64B43" d="M146.562,89.015c2.723,1.332,2.723,3.493-0.001,4.826c-2.723,1.332-7.14,1.333-9.861,0
					c-2.725-1.333-2.723-3.494,0-4.826C139.421,87.683,143.838,87.683,146.562,89.015z"/>
			</g>
			<g>
				<path fill="#C64B43" d="M169.913,77.589c2.723,1.332,2.724,3.492-0.001,4.825c-2.723,1.333-7.139,1.333-9.861,0.001
					c-2.724-1.333-2.723-3.494,0-4.827C162.775,76.255,167.188,76.256,169.913,77.589z"/>
			</g>
		</g>
		<g>
			<path fill="#C64B43" d="M96.582,87.413c2.724,1.332,2.722,3.494,0,4.826c-2.725,1.333-7.139,1.332-9.861,0
				c-2.724-1.333-2.726-3.493-0.001-4.826C89.442,86.08,93.858,86.08,96.582,87.413z"/>
		</g>
		<g>
			<g>
				<path fill="#C64B43" d="M119.935,75.986c2.723,1.332,2.721,3.493-0.001,4.825c-2.723,1.333-7.14,1.333-9.863,0.001
					c-2.724-1.333-2.723-3.494,0-4.826C112.794,74.654,117.211,74.653,119.935,75.986z"/>
			</g>
			<g>
				<path fill="#C64B43" d="M143.285,64.56c2.723,1.333,2.726,3.492,0,4.825c-2.722,1.333-7.139,1.333-9.861,0
					c-2.724-1.333-2.724-3.494,0-4.826C136.147,63.227,140.562,63.228,143.285,64.56z"/>
			</g>
		</g>
	</g>
	<g>
		<path fill="#FFFFFF" d="M134.858,77.317c14.74-3.794,22.457-11.419,22.457-18.851c0-2.078-0.445-4.107-1.482-5.96
			c-2.437-4.336-7.504-6.926-13.538-6.926c-13.76,0-23.513,12.911-28.302,21.06c-4.798-8.141-14.546-20.979-28.276-20.979
			c-8.708,0-15.026,5.388-15.026,12.698c0,9.312,7.39,16.278,22.139,19.476L68.4,90.922l18.24,8.935l27.694-15.449l27.026,15.418
			l18.239-8.924L134.858,77.317z M139.183,57.009c2.573,0,4.439,1.438,4.439,3.416c0,1.549-1.14,3.97-4.34,6.126
			c-2.438,1.646-6.722,3.555-13.855,4.151C128.09,65.083,132.988,57.009,139.183,57.009z M84.38,60.424
			c0-1.977,1.866-3.416,4.438-3.416c6.194,0,11.096,8.074,13.76,13.693c-7.137-0.599-11.419-2.505-13.86-4.151
			C85.52,64.395,84.38,61.975,84.38,60.424z"/>
	</g>
	<g>
		<path fill="#FFFFFF" d="M130.125,49.098c9.997-6.334,20.925-3.404,24.797,2.029c3.872,5.434,3.686,12.144-3.413,18.217
			c-7.101,6.074-16.65,7.974-16.65,7.974l-42.035,0.518c0,0-11.389-1.455-17.987-8.821c-6.597-7.367-3.396-14.846-3.396-14.846
			c1.548-2.333,4.366-9.993,18.49-8.091c14.125,1.901,24.057,20.563,24.057,20.563S120.128,55.434,130.125,49.098z M102.578,70.965
			c0,0-5-12.184-11.578-13.621c-6.578-1.436-6.622,3.081-6.622,3.081c1.375,9.125,18.196,10.278,18.196,10.278 M125.493,70.702
			c0,0,16.824-1.153,18.196-10.278c0,0-0.05-4.517-6.62-3.081c-6.575,1.438-11.576,13.621-11.576,13.621"/>
	</g>
</g>
</svg>
