<?xml version="1.0" encoding="utf-8"?>
<!-- Generator: Adobe Illustrator 16.0.0, SVG Export Plug-In . SVG Version: 6.00 Build 0)  -->
<!DOCTYPE svg PUBLIC "-//W3C//DTD SVG 1.1//EN" "http://www.w3.org/Graphics/SVG/1.1/DTD/svg11.dtd">
<svg version="1.1" xmlns="http://www.w3.org/2000/svg" xmlns:xlink="http://www.w3.org/1999/xlink" x="0px" y="0px"
	 width="40.519px" height="40px" viewBox="0 0 40.519 40" enable-background="new 0 0 40.519 40" xml:space="preserve">
<g id="Layer_46">
</g>
<g id="Layer_6_xA0_Image_1_">
</g>
<g id="Gift_detail_1_">
	<g id="ratings_smileys_3_">
		<g id="its_bad_6_">
			<g id="_x31__1_">
			</g>
			<g id="its_bad_7_">
				<g id="it_x2019_s_bad">
				</g>
			</g>
		</g>
		<g id="poor_6_">
			<g id="_x32__1_">
			</g>
			<g id="poor_7_">
				<g id="poor_8_">
				</g>
			</g>
		</g>
		<g id="its_okay_smiley_3_">
			<g id="_x33__1_">
			</g>
			<g id="just_ok_3_">
				<g id="just_ok_x21__1_">
				</g>
			</g>
		</g>
		<g id="Like_it_smiley_3_">
			<g id="_x34__1_">
			</g>
			<g id="like_it_msg_3_">
				<g id="Like_it_x21__1_">
				</g>
			</g>
		</g>
		<g id="Love_it_smiley_3_">
			<g id="_x35__1_">
			</g>
			<g id="love_it_msg_3_">
				<g id="LOVE_it_x21__1_">
				</g>
			</g>
		</g>
	</g>
</g>
<g id="Gift_detail_selected_1_">
	<g id="ratings_smileys_2_">
		<g id="its_bad_4_">
			<g id="_x31_">
			</g>
			<g id="its_bad_5_">
				<g id="it_x2019_s_bad_x21_">
				</g>
			</g>
		</g>
		<g id="poor_4_">
			<g id="_x32_">
			</g>
			<g id="poor_5_">
				<g id="poor_x21_">
				</g>
			</g>
		</g>
		<g id="its_okay_smiley_2_">
			<g id="_x33_">
			</g>
			<g id="just_ok_2_">
				<g id="just_ok_x21_">
				</g>
			</g>
		</g>
		<g id="Like_it_smiley_2_">
			<g id="_x34_">
			</g>
			<g id="like_it_msg_2_">
				<g id="Like_it_x21_">
				</g>
			</g>
		</g>
		<g id="Love_it_smiley_2_">
			<g id="_x35_">
			</g>
			<g id="love_it_msg_2_">
				<g id="LOVE_it_x21_">
					<g>
						<path fill="#E0483E" d="M284.617,53.223h-1.914l-4.199,3.301l1.152,1.455c1.243-1.009,1.975-1.608,2.192-1.797
							s0.402-0.361,0.552-0.518c-0.052,0.645-0.078,1.517-0.078,2.617V67.5h2.295V53.223z"/>
					</g>
					<g>
						<path fill="#F7941D" d="M222.557,65.479h-6.777v-0.098l2.48-2.402c1.113-1.048,1.909-1.88,2.388-2.495
							s0.833-1.213,1.064-1.792s0.347-1.191,0.347-1.836c0-1.172-0.4-2.104-1.201-2.798s-1.865-1.04-3.193-1.04
							c-0.847,0-1.644,0.14-2.393,0.42s-1.521,0.755-2.314,1.426l1.24,1.514c0.671-0.527,1.262-0.892,1.772-1.094
							s1.04-0.303,1.587-0.303c0.684,0,1.219,0.186,1.606,0.557s0.581,0.879,0.581,1.523c0,0.469-0.081,0.908-0.244,1.318
							s-0.422,0.848-0.776,1.313s-1.076,1.255-2.163,2.368l-3.682,3.701V67.5h9.678V65.479z"/>
					</g>
					<g>
						<path fill="#DCCD00" d="M153.809,53.945c-0.808-0.618-1.931-0.928-3.369-0.928c-1.732,0-3.252,0.481-4.561,1.445l1.123,1.602
							c0.684-0.442,1.276-0.74,1.777-0.894s1.022-0.229,1.563-0.229c0.774,0,1.36,0.166,1.758,0.498s0.596,0.804,0.596,1.416
							c0,1.575-1.14,2.363-3.418,2.363h-1.26v1.865h1.24c1.295,0,2.246,0.179,2.852,0.537s0.908,0.918,0.908,1.68
							c0,0.859-0.273,1.494-0.82,1.904s-1.374,0.615-2.48,0.615c-0.625,0-1.276-0.081-1.953-0.244s-1.318-0.394-1.924-0.693v2.041
							c1.087,0.515,2.422,0.771,4.004,0.771c1.79,0,3.171-0.373,4.141-1.118s1.455-1.805,1.455-3.179
							c0-0.944-0.286-1.701-0.859-2.271s-1.433-0.926-2.578-1.069V59.98c0.957-0.208,1.699-0.613,2.227-1.216
							s0.791-1.355,0.791-2.261C155.02,55.417,154.616,54.563,153.809,53.945z"/>
					</g>
					<g>
						<path fill="#ABD745" d="M82.52,62.48l3.545-5.156c0.391-0.612,0.677-1.133,0.859-1.563h0.078
							c-0.065,0.813-0.098,1.858-0.098,3.135v3.584H82.52z M91.064,62.48h-1.924v-9.297h-2.236l-6.523,9.434v1.768h6.523V67.5h2.236
							v-3.115h1.924V62.48z"/>
					</g>
					<g>
						<path fill="#22C064" d="M18.517,58.662c-0.329,0.052-0.607,0.098-0.835,0.137l0.322-3.535h5.4v-2.041h-7.422l-0.547,6.973
							l1.025,0.605c0.338-0.078,0.732-0.148,1.182-0.21s0.827-0.093,1.133-0.093c2.174,0,3.262,0.853,3.262,2.559
							c0,0.892-0.27,1.569-0.811,2.031s-1.328,0.693-2.363,0.693c-0.586,0-1.221-0.081-1.904-0.244s-1.289-0.394-1.816-0.693v2.08
							c0.912,0.515,2.165,0.771,3.76,0.771c1.758,0,3.114-0.428,4.067-1.284s1.431-2.046,1.431-3.569c0-1.315-0.42-2.354-1.26-3.115
							s-1.979-1.143-3.418-1.143C19.248,58.584,18.845,58.61,18.517,58.662z"/>
					</g>
					<g>
						<path fill="#E0483E" d="M283.975,1c10.749,0,19.494,8.523,19.494,19s-8.745,19-19.494,19s-19.493-8.523-19.493-19
							S273.226,1,283.975,1 M283.975,0c-11.318,0-20.493,8.954-20.493,20s9.175,20,20.493,20s20.494-8.954,20.494-20
							S295.293,0,283.975,0L283.975,0z"/>
					</g>
					<g>
						<polygon fill="#E0483E" points="293.022,18.531 287.919,15.173 292.945,10.21 293.648,10.922 289.501,15.017 293.571,17.696 
													"/>
					</g>
					<g>
						<polygon fill="#E0483E" points="275.224,18.531 274.675,17.696 278.744,15.017 274.598,10.922 275.301,10.21 280.326,15.173 
													"/>
					</g>
					<g>
						<path fill="#E0483E" d="M294.042,30.797c-1.513-4.579-5.746-7.655-10.535-7.655c-4.736,0-8.956,3.032-10.499,7.546
							l-0.945-0.324c1.681-4.918,6.28-8.222,11.444-8.222c5.222,0,9.837,3.353,11.484,8.341L294.042,30.797z"/>
					</g>
					<g>
						<path fill="#E0483E" d="M284.617,53.223h-1.914l-4.199,3.301l1.152,1.455c1.243-1.009,1.975-1.608,2.192-1.797
							s0.402-0.361,0.552-0.518c-0.052,0.645-0.078,1.517-0.078,2.617V67.5h2.295V53.223z"/>
					</g>
					<g>
						<g>
							<path fill="#F7941D" d="M218.12,1c10.758,0,19.51,8.523,19.51,19s-8.752,19-19.51,19c-10.757,0-19.509-8.523-19.509-19
								S207.363,1,218.12,1 M218.12,0c-11.327,0-20.509,8.954-20.509,20s9.182,20,20.509,20s20.51-8.954,20.51-20
								S229.447,0,218.12,0L218.12,0z"/>
						</g>
					</g>
					<g>
						<g>
							<path fill="#F7941D" d="M210.99,13.075c1.345,0,2.439,1.075,2.439,2.396s-1.095,2.396-2.439,2.396
								c-1.346,0-2.441-1.075-2.441-2.396S209.645,13.075,210.99,13.075 M210.99,12.075c-1.9,0-3.441,1.521-3.441,3.396
								s1.541,3.396,3.441,3.396c1.899,0,3.439-1.521,3.439-3.396S212.89,12.075,210.99,12.075L210.99,12.075z"/>
						</g>
					</g>
					<g>
						<g>
							<path fill="#F7941D" d="M223.986,13.075c1.346,0,2.44,1.075,2.44,2.396s-1.095,2.396-2.44,2.396s-2.44-1.075-2.44-2.396
								S222.641,13.075,223.986,13.075 M223.986,12.075c-1.9,0-3.44,1.521-3.44,3.396s1.54,3.396,3.44,3.396s3.44-1.521,3.44-3.396
								S225.887,12.075,223.986,12.075L223.986,12.075z"/>
						</g>
					</g>
					<g>
						<path fill="#F7941D" d="M228.172,30.797c-1.513-4.579-5.746-7.655-10.535-7.655c-4.736,0-8.956,3.032-10.5,7.546l-0.945-0.324
							c1.682-4.918,6.281-8.222,11.445-8.222c5.222,0,9.837,3.353,11.484,8.341L228.172,30.797z"/>
					</g>
					<g>
						<path fill="#F7941D" d="M222.557,65.479h-6.777v-0.098l2.48-2.402c1.113-1.048,1.909-1.88,2.388-2.495
							s0.833-1.213,1.064-1.792s0.347-1.191,0.347-1.836c0-1.172-0.4-2.104-1.201-2.798s-1.865-1.04-3.193-1.04
							c-0.847,0-1.644,0.14-2.393,0.42s-1.521,0.755-2.314,1.426l1.24,1.514c0.671-0.527,1.262-0.892,1.772-1.094
							s1.04-0.303,1.587-0.303c0.684,0,1.219,0.186,1.606,0.557s0.581,0.879,0.581,1.523c0,0.469-0.081,0.908-0.244,1.318
							s-0.422,0.848-0.776,1.313s-1.076,1.255-2.163,2.368l-3.682,3.701V67.5h9.678V65.479z"/>
					</g>
					<g>
						<path fill="#D3C400" d="M152.25,1c10.758,0,19.51,8.523,19.51,19s-8.752,19-19.51,19c-10.757,0-19.509-8.523-19.509-19
							S141.493,1,152.25,1 M152.25,0c-11.327,0-20.509,8.954-20.509,20s9.182,20,20.509,20s20.51-8.954,20.51-20S163.577,0,152.25,0
							L152.25,0z"/>
					</g>
					<g>
						<path fill="#D3C400" d="M145.12,13.075c1.345,0,2.44,1.075,2.44,2.396s-1.095,2.396-2.44,2.396
							c-1.346,0-2.44-1.075-2.44-2.396S143.774,13.075,145.12,13.075 M145.12,12.075c-1.9,0-3.44,1.521-3.44,3.396
							s1.54,3.396,3.44,3.396c1.9,0,3.44-1.521,3.44-3.396S147.02,12.075,145.12,12.075L145.12,12.075z"/>
					</g>
					<g>
						<path fill="#D3C400" d="M158.178,13.075c1.381,0,2.504,1.075,2.504,2.396s-1.123,2.396-2.504,2.396
							c-1.38,0-2.502-1.075-2.502-2.396S156.798,13.075,158.178,13.075 M158.178,12.075c-1.934,0-3.502,1.521-3.502,3.396
							s1.568,3.396,3.502,3.396c1.936,0,3.504-1.521,3.504-3.396S160.113,12.075,158.178,12.075L158.178,12.075z"/>
					</g>
					<g>
						<path fill="#D3C400" d="M153.809,53.945c-0.808-0.618-1.931-0.928-3.369-0.928c-1.732,0-3.252,0.481-4.561,1.445l1.123,1.602
							c0.684-0.442,1.276-0.74,1.777-0.894s1.022-0.229,1.563-0.229c0.774,0,1.36,0.166,1.758,0.498s0.596,0.804,0.596,1.416
							c0,1.575-1.14,2.363-3.418,2.363h-1.26v1.865h1.24c1.295,0,2.246,0.179,2.852,0.537s0.908,0.918,0.908,1.68
							c0,0.859-0.273,1.494-0.82,1.904s-1.374,0.615-2.48,0.615c-0.625,0-1.276-0.081-1.953-0.244s-1.318-0.394-1.924-0.693v2.041
							c1.087,0.515,2.422,0.771,4.004,0.771c1.79,0,3.171-0.373,4.141-1.118s1.455-1.805,1.455-3.179
							c0-0.944-0.286-1.701-0.859-2.271s-1.433-0.926-2.578-1.069V59.98c0.957-0.208,1.699-0.613,2.227-1.216
							s0.791-1.355,0.791-2.261C155.02,55.417,154.616,54.563,153.809,53.945z"/>
					</g>
					<g>
						<polyline fill="#FFFFFF" points="142.444,27.67 161.557,27.67 161.557,26.67 142.444,26.67 						"/>
					</g>
					<g>
						<polygon fill="#D3C400" points="161.557,27.17 161.557,26.67 142.444,26.67 142.444,27.67 161.557,27.67 161.557,26.67 
							161.557,27.17 161.557,26.67 142.444,26.67 142.444,27.67 161.557,27.67 161.557,26.67 						"/>
					</g>
					<g>
						<path fill="#ABD745" d="M86.38,1c10.757,0,19.509,8.523,19.509,19S97.137,39,86.38,39c-10.758,0-19.51-8.523-19.51-19
							S75.622,1,86.38,1 M86.38,0C75.053,0,65.87,8.954,65.87,20s9.183,20,20.51,20s20.509-8.954,20.509-20S97.707,0,86.38,0
							L86.38,0z"/>
					</g>
					<g>
						<path fill="#ABD745" d="M79.249,13.075c1.346,0,2.44,1.075,2.44,2.396s-1.095,2.396-2.44,2.396
							c-1.345,0-2.44-1.075-2.44-2.396S77.904,13.075,79.249,13.075 M79.249,12.075c-1.9,0-3.44,1.521-3.44,3.396
							s1.54,3.396,3.44,3.396c1.9,0,3.44-1.521,3.44-3.396S81.149,12.075,79.249,12.075L79.249,12.075z"/>
					</g>
					<g>
						<path fill="#ABD745" d="M92.246,13.075c1.346,0,2.44,1.075,2.44,2.396s-1.095,2.396-2.44,2.396
							c-1.345,0-2.44-1.075-2.44-2.396S90.9,13.075,92.246,13.075 M92.246,12.075c-1.9,0-3.44,1.521-3.44,3.396
							s1.54,3.396,3.44,3.396s3.44-1.521,3.44-3.396S94.146,12.075,92.246,12.075L92.246,12.075z"/>
					</g>
					<g>
						<path fill="#ABD745" d="M85.895,35.217c-5.221,0-9.836-3.353-11.485-8.341l0.949-0.314c1.513,4.579,5.747,7.655,10.536,7.655
							c4.736,0,8.955-3.032,10.499-7.546l0.946,0.324C95.658,31.913,91.059,35.217,85.895,35.217z"/>
					</g>
					<g>
						<path fill="#ABD745" d="M82.52,62.48l3.545-5.156c0.391-0.612,0.677-1.133,0.859-1.563h0.078
							c-0.065,0.813-0.098,1.858-0.098,3.135v3.584H82.52z M91.064,62.48h-1.924v-9.297h-2.236l-6.523,9.434v1.768h6.523V67.5h2.236
							v-3.115h1.924V62.48z"/>
					</g>
					<g>
						<path d="M20.259,1c10.62,0,19.259,8.523,19.259,19s-8.64,19-19.259,19S1,30.477,1,20S9.64,1,20.259,1 M20.259,0
							C9.07,0,0,8.954,0,20s9.07,20,20.259,20s20.259-8.954,20.259-20S31.448,0,20.259,0L20.259,0z"/>
					</g>
					<g>
						<path d="M20.511,35.217c-6.885,0-12.487-5.472-12.487-12.198v-0.5h24.974v0.5C32.998,29.745,27.396,35.217,20.511,35.217z
							 M9.036,23.519c0.27,5.943,5.314,10.698,11.476,10.698s11.206-4.755,11.476-10.698H9.036z"/>
					</g>
					<g>
						<path d="M13.379,13.075c1.346,0,2.44,1.075,2.44,2.396s-1.095,2.396-2.44,2.396s-2.44-1.075-2.44-2.396
							S12.033,13.075,13.379,13.075 M13.379,12.075c-1.9,0-3.44,1.521-3.44,3.396s1.541,3.396,3.44,3.396s3.44-1.521,3.44-3.396
							S15.279,12.075,13.379,12.075L13.379,12.075z"/>
					</g>
					<g>
						<path d="M26.375,13.075c1.346,0,2.44,1.075,2.44,2.396s-1.095,2.396-2.44,2.396s-2.44-1.075-2.44-2.396
							S25.03,13.075,26.375,13.075 M26.375,12.075c-1.9,0-3.44,1.521-3.44,3.396s1.541,3.396,3.44,3.396s3.44-1.521,3.44-3.396
							S28.275,12.075,26.375,12.075L26.375,12.075z"/>
					</g>
					<g>
						<path fill="#22C064" d="M18.521,58.516l-0.342,0.068l0.264-2.803h5.098v-2.559h-7.744l-0.537,7.275l1.201,0.645
							c0.26-0.078,0.599-0.151,1.016-0.22s0.797-0.103,1.143-0.103c1.908,0,2.861,0.72,2.861,2.158c0,1.511-0.921,2.266-2.764,2.266
							c-0.612,0-1.26-0.086-1.943-0.259s-1.283-0.396-1.797-0.669v2.607c0.977,0.515,2.259,0.771,3.848,0.771
							c1.83,0,3.236-0.43,4.219-1.289s1.475-2.087,1.475-3.682c0-1.348-0.409-2.409-1.226-3.184s-1.916-1.162-3.296-1.162
							C19.41,58.379,18.918,58.425,18.521,58.516z"/>
					</g>
				</g>
			</g>
		</g>
	</g>
</g>
</svg>
