<?xml version="1.0" encoding="utf-8"?>
<!-- Generator: Adobe Illustrator 16.0.0, SVG Export Plug-In . SVG Version: 6.00 Build 0)  -->
<!DOCTYPE svg PUBLIC "-//W3C//DTD SVG 1.1//EN" "http://www.w3.org/Graphics/SVG/1.1/DTD/svg11.dtd">
<svg version="1.1" id="Layer_1" xmlns="http://www.w3.org/2000/svg" xmlns:xlink="http://www.w3.org/1999/xlink" x="0px" y="0px"
	 width="48px" height="48px" viewBox="0 0 48 48" enable-background="new 0 0 48 48" xml:space="preserve">
<path fill="#FFFFFF" d="M24,0.25C10.883,0.25,0.25,10.883,0.25,24S10.883,47.75,24,47.75S47.75,37.117,47.75,24S37.117,0.25,24,0.25
	z M24,46.75C11.455,46.75,1.25,36.544,1.25,24C1.25,11.456,11.455,1.25,24,1.25c12.544,0,22.75,10.206,22.75,22.75
	C46.75,36.544,36.544,46.75,24,46.75z M16.028,22.099v5.188h7.387v-7.219h-5.354C16.939,20.068,16.028,20.978,16.028,22.099z
	 M31.646,11.688c-2.594-2.589-7.066,6.118-7.066,6.118s-4.549-8.264-7.066-6.118c-2.966,2.537,3.164,7.149,7.066,7.149
	C28.481,18.837,34.405,14.449,31.646,11.688z M16.028,35.117c0,1.124,0.911,2.035,2.033,2.035h5.354V29.6h-7.387V35.117z
	 M31.084,20.068h-5.354v7.219h7.387v-5.188C33.116,20.978,32.206,20.068,31.084,20.068z M25.729,37.152h5.354
	c1.122,0,2.032-0.911,2.032-2.035V29.6h-7.387V37.152z"/>
</svg>
