<?xml version="1.0" encoding="utf-8"?>
<!-- Generator: Adobe Illustrator 16.0.0, SVG Export Plug-In . SVG Version: 6.00 Build 0)  -->
<!DOCTYPE svg PUBLIC "-//W3C//DTD SVG 1.1//EN" "http://www.w3.org/Graphics/SVG/1.1/DTD/svg11.dtd">
<svg version="1.1" id="Layer_1" xmlns="http://www.w3.org/2000/svg" xmlns:xlink="http://www.w3.org/1999/xlink" x="0px" y="0px"
	 width="159.508px" height="159.508px" viewBox="0 0 159.508 159.508" enable-background="new 0 0 159.508 159.508"
	 xml:space="preserve">
<g>
	<circle fill="#ED1C24" cx="79.754" cy="79.754" r="78.333"/>
	<g>
		<path fill="#FFFFFF" d="M76.673,113.006H62.4c-2.989,0-5.42-2.425-5.42-5.421V92.877h19.692V113.006z"/>
		<path fill="#FFFFFF" d="M76.673,86.713H56.98V72.887c0-2.992,2.431-5.413,5.42-5.413h14.272V86.713z"/>
		<path fill="#FFFFFF" d="M60.941,45.137c6.709-5.721,18.83,16.306,18.83,16.306s11.925-23.205,18.838-16.306
			c7.353,7.357-8.435,19.056-18.838,19.056C69.373,64.192,53.038,51.898,60.941,45.137z"/>
		<path fill="#FFFFFF" d="M102.527,107.585c0,2.996-2.428,5.421-5.42,5.421H82.841V92.877h19.687V107.585z"/>
		<path fill="#FFFFFF" d="M102.527,86.713H82.839V67.475h14.268c2.991,0,5.419,2.422,5.419,5.413v13.825H102.527z"/>
	</g>
</g>
</svg>
