<?xml version="1.0" encoding="utf-8"?>
<!-- Generator: Adobe Illustrator 17.0.0, SVG Export Plug-In . SVG Version: 6.00 Build 0)  -->
<!DOCTYPE svg PUBLIC "-//W3C//DTD SVG 1.1 Basic//EN" "http://www.w3.org/Graphics/SVG/1.1/DTD/svg11-basic.dtd" [
	<!ENTITY ns_flows "http://ns.adobe.com/Flows/1.0/">
	<!ENTITY ns_extend "http://ns.adobe.com/Extensibility/1.0/">
	<!ENTITY ns_ai "http://ns.adobe.com/AdobeIllustrator/10.0/">
	<!ENTITY ns_graphs "http://ns.adobe.com/Graphs/1.0/">
]>
<svg version="1.1" baseProfile="basic" id="Layer_1" xmlns:x="&ns_extend;" xmlns:i="&ns_ai;" xmlns:graph="&ns_graphs;"
	 xmlns="http://www.w3.org/2000/svg" xmlns:xlink="http://www.w3.org/1999/xlink" xmlns:a="http://ns.adobe.com/AdobeSVGViewerExtensions/3.0/"
	 x="0px" y="0px" width="100px" height="100px" viewBox="0 0 100 100" xml:space="preserve">
<rect x="22" y="13" fill="#DF9426" width="54" height="6"/>
<rect x="22" y="81" fill="#DF9426" width="54" height="6"/>
<polygon fill="none" stroke="#DF9426" stroke-width="4" stroke-miterlimit="10" points="31.834,81.734 32.222,63.303 41.757,51.72 
	41.768,48.153 33.363,36.126 33.532,17.53 67.278,17.383 66.946,37.688 57.106,47.528 57.261,51.631 67,62.366 67,81.422 "/>
<line fill="none" stroke="#DF9426" stroke-width="4" stroke-miterlimit="10" x1="41" y1="63" x2="58" y2="63"/>
<line fill="none" stroke="#DF9426" stroke-width="4" stroke-miterlimit="10" x1="41" y1="69" x2="58" y2="69"/>
<line fill="none" stroke="#DF9426" stroke-width="4" stroke-miterlimit="10" x1="41" y1="76" x2="58" y2="76"/>
<line fill="none" stroke="#DF9426" stroke-width="4" stroke-miterlimit="10" x1="44" y1="39" x2="56" y2="39"/>
</svg>
