<?xml version="1.0" encoding="utf-8"?>
<!-- Generator: Adobe Illustrator 16.0.0, SVG Export Plug-In . SVG Version: 6.00 Build 0)  -->
<!DOCTYPE svg PUBLIC "-//W3C//DTD SVG 1.1//EN" "http://www.w3.org/Graphics/SVG/1.1/DTD/svg11.dtd">
<svg version="1.1" id="Layer_1" xmlns="http://www.w3.org/2000/svg" xmlns:xlink="http://www.w3.org/1999/xlink" x="0px" y="0px"
	 width="58px" height="58px" viewBox="0 0 58 58" enable-background="new 0 0 58 58" xml:space="preserve">
<g>
	<path fill="#333333" d="M29,1c15.439,0,28,12.561,28,28c0,15.439-12.561,28-28,28C13.561,57,1,44.439,1,29C1,13.561,13.561,1,29,1
		 M29,0C12.984,0,0,12.984,0,29c0,16.018,12.984,29,29,29c16.018,0,29-12.982,29-29C58,12.984,45.018,0,29,0L29,0z"/>
</g>
<g>
	<g>
		<path fill="#333333" d="M22.622,27.129c-0.514,0.71-0.298,1.228-0.091,1.556c1.605,2.531,4.183,5.161,6.854,6.854
			c0.522,0.331,1.018,0.296,1.556-0.093l1.908-1.395c0.883-0.615,1.847-0.655,2.776-0.119c0.036,0.021,3.705,2.154,5.163,3.612
			c1.843,1.841,0.633,3.613-1.209,5.445c-1.809,1.813-3.166,1.89-4.428,1.7c-0.956-0.132-6.813-2.115-13.234-8.54
			c-6.417-6.419-8.411-12.277-8.537-13.164c-0.132-0.902-0.357-2.451,1.688-4.497c1.838-1.836,3.613-3.051,5.455-1.209
			c1.455,1.456,3.591,5.128,3.613,5.164c0.538,0.932,0.496,1.893-0.119,2.775L22.622,27.129z M22.986,24.5
			c0.339-0.486,0.358-0.914,0.061-1.426c-0.527-0.914-2.287-3.778-3.412-4.903c-1.208-1.207-2.285-0.18-3.674,1.209
			c-1.6,1.6-1.451,2.613-1.345,3.355c0.122,0.847,2.1,6.431,8.193,12.524c6.094,6.094,11.679,8.071,12.451,8.185
			c1.143,0.17,2.008,0.095,3.431-1.334c1.359-1.364,2.409-2.472,1.207-3.674c-1.13-1.13-3.99-2.888-4.902-3.413
			c-0.513-0.297-0.935-0.28-1.427,0.062l-1.89,1.383c-0.949,0.689-2.016,0.738-2.968,0.135c-2.755-1.748-5.495-4.486-7.244-7.244
			c-0.606-0.958-0.558-2.012,0.136-2.969L22.986,24.5z"/>
	</g>
	<g>
		<path fill="#333333" d="M34.393,28.942c-2.767,0-5.018-2.251-5.021-5.021c0.001-1.344,0.524-2.604,1.475-3.553l3.653-3.651
			l0.803,0.805l-3.652,3.65c-0.734,0.734-1.139,1.71-1.14,2.749c0.001,2.141,1.744,3.883,3.883,3.883c0,0,0,0,0.003,0
			c1.036,0,2.011-0.403,2.746-1.137l3.653-3.653l0.806,0.805l-3.653,3.653c-0.951,0.95-2.213,1.472-3.552,1.472H34.393z"/>
	</g>
	<g>
		<polygon fill="#333333" points="35.512,20.444 34.375,20.444 34.375,17.6 31.529,17.6 31.529,16.462 35.512,16.462 		"/>
	</g>
</g>
</svg>
