<?xml version="1.0" encoding="utf-8"?>
<!-- Generator: Adobe Illustrator 16.0.0, SVG Export Plug-In . SVG Version: 6.00 Build 0)  -->
<!DOCTYPE svg PUBLIC "-//W3C//DTD SVG 1.1//EN" "http://www.w3.org/Graphics/SVG/1.1/DTD/svg11.dtd">
<svg version="1.1" id="Layer_1" xmlns="http://www.w3.org/2000/svg" xmlns:xlink="http://www.w3.org/1999/xlink" x="0px" y="0px"
	 width="56.643px" height="100px" viewBox="0 0 56.643 100" enable-background="new 0 0 56.643 100" xml:space="preserve">
<path fill="#C1C1C1" d="M49.491,0H7.153C3.205,0,0,3.206,0,7.156v85.709C0,96.801,3.206,100,7.153,100h42.334
	c3.951,0,7.156-3.199,7.156-7.135V7.156C56.646,3.205,53.441,0,49.491,0z M22.79,5.72h11.002c1.26,0,2.281,1.021,2.281,2.284
	c0,1.26-1.021,2.328-2.281,2.328H22.79c-1.263,0-2.283-1.068-2.283-2.328C20.508,6.74,21.528,5.72,22.79,5.72z M28.289,96.246
	c-2.55,0-4.623-2.088-4.623-4.611c0-2.563,2.075-4.633,4.623-4.633c2.554,0,4.625,2.07,4.625,4.633
	C32.913,94.158,30.843,96.246,28.289,96.246z M48.757,79.815c0,2.279-1.844,4.122-4.117,4.122H11.879
	c-2.273,0-4.12-1.843-4.12-4.122V20.15c0-2.274,1.847-4.117,4.12-4.117h32.759c2.273,0,4.117,1.843,4.117,4.117v59.665H48.757z
	 M42.806,28.435h-28.97c-0.143,0-0.224,0.083-0.244,0.247v2.756c0,0.162,0.081,0.244,0.244,0.244h5.27
	c1.815,0,3.828,0.583,6.032,1.745c1.592,1.16,2.634,2.675,3.125,4.531H13.836c-0.143,0-0.224,0.081-0.244,0.244v2.759
	c0,0.162,0.081,0.242,0.244,0.242h14.546v0.368c0,0.347-0.041,0.805-0.121,1.379c-1.327,4.755-5.3,7.135-11.913,7.135h-1.871v0.124
	c11.963,15.599,17.978,23.396,18.039,23.396h5.91v-0.247L22.867,53.213c0.164,0,0.247-0.041,0.247-0.127
	c1.409,0,3.786-0.957,7.131-2.879c3.781-2.917,5.67-5.916,5.67-9.001h6.891c0.162,0,0.242-0.08,0.242-0.244v-2.757
	c0-0.144-0.08-0.227-0.242-0.245H35.64l-0.127-0.886c-0.854-2.598-2.063-4.31-3.611-5.146v-0.247h10.904
	c0.162,0,0.242-0.083,0.242-0.244v-2.756C43.05,28.54,42.972,28.457,42.806,28.435z"/>
</svg>
