<?xml version="1.0" encoding="utf-8"?>
<!-- Generator: Adobe Illustrator 16.0.0, SVG Export Plug-In . SVG Version: 6.00 Build 0)  -->
<!DOCTYPE svg PUBLIC "-//W3C//DTD SVG 1.1//EN" "http://www.w3.org/Graphics/SVG/1.1/DTD/svg11.dtd">
<svg version="1.1" id="Layer_1" xmlns="http://www.w3.org/2000/svg" xmlns:xlink="http://www.w3.org/1999/xlink" x="0px" y="0px"
	 width="42px" height="42px" viewBox="0 0 42 42" enable-background="new 0 0 42 42" xml:space="preserve">
<path fill="#FFFFFF" d="M40.932,19.155l-0.021,0.001c-0.08-0.784-0.703-1.406-1.487-1.484h-0.34h-0.574v-0.011
	c-0.981,0-1.832-0.565-2.24-1.389c-0.098-0.202-0.174-0.418-0.214-0.647c-0.185-0.513-0.394-1.013-0.626-1.5
	c0-0.001,0-0.001-0.003-0.004c-0.117-0.173-0.211-0.361-0.282-0.56c0-0.001,0-0.004,0-0.004C35.05,13.297,35,13.016,35,12.726
	c0-0.69,0.279-1.314,0.731-1.764h-0.002l0,0l0.509-0.509c0.007-0.004,0.013-0.009,0.02-0.016c0.005-0.008,0.012-0.014,0.017-0.021
	c0.594-0.612,0.624-1.561,0.096-2.208l0.01-0.006c-0.389-0.467-0.798-0.914-1.226-1.341c-0.44-0.438-0.897-0.855-1.375-1.252
	l-0.006,0.005c-0.586-0.479-1.424-0.496-2.031-0.052l-0.365,0.366l-0.343,0.34l-0.017-0.016c-0.728,0.73-1.796,0.914-2.696,0.552
	c-0.123-0.047-0.241-0.107-0.354-0.176c-0.574-0.277-1.168-0.523-1.778-0.732c-0.108-0.027-0.212-0.063-0.319-0.104
	c0,0-0.001,0-0.002-0.004c-0.299-0.118-0.58-0.303-0.824-0.545c-0.406-0.408-0.644-0.92-0.711-1.452
	c-0.027-0.208-0.027-0.417,0-0.625V2.737c0-0.819-0.594-1.5-1.372-1.639c-0.098-0.011-0.194-0.017-0.292-0.025h-0.001
	c-0.553-0.045-1.105-0.07-1.667-0.07c-0.561,0-1.116,0.025-1.667,0.07h-0.001c-0.099,0.008-0.194,0.014-0.293,0.025
	c-0.78,0.139-1.371,0.82-1.371,1.639v0.742c0,1.073-0.675,1.987-1.625,2.338c-0.059,0.025-0.123,0.044-0.185,0.062
	c-0.668,0.227-1.313,0.495-1.935,0.802c-0.004,0.003-0.004,0.004-0.006,0.004c-0.05,0.027-0.099,0.051-0.151,0.076
	c-0.317,0.145-0.668,0.225-1.039,0.225c-0.69,0-1.316-0.28-1.765-0.73l-0.005,0.004l-0.527-0.524C9.85,5.155,8.953,5.09,8.305,5.541
	c-0.076,0.061-0.15,0.122-0.22,0.184c-0.004,0.002-0.008,0.006-0.01,0.01C7.648,6.092,7.239,6.469,6.846,6.86
	c-0.393,0.392-0.77,0.8-1.126,1.223c0,0-0.003,0-0.003,0.004C5.654,8.161,5.588,8.238,5.529,8.313
	c-0.455,0.65-0.39,1.547,0.188,2.126l0.526,0.525C7,11.721,7.169,12.843,6.751,13.761c-0.026,0.059-0.053,0.116-0.086,0.171
	c-0.306,0.618-0.574,1.264-0.798,1.926c-0.02,0.071-0.044,0.138-0.072,0.207c0,0,0,0,0,0.002c-0.121,0.315-0.31,0.613-0.565,0.867
	c-0.488,0.487-1.126,0.731-1.767,0.731v0.007H2.719c-0.82,0-1.502,0.591-1.64,1.37c-0.011,0.096-0.019,0.194-0.027,0.293l0,0
	C1.007,19.873,0.983,20.452,0.983,21l0,0c0,0.005,0,0.01,0,0.013c0,0.006,0,0.012,0,0.014l0,0c0,0.552,0.023,1.097,0.068,1.636
	v0.004c0.009,0.095,0.017,0.192,0.027,0.29c0.138,0.778,0.819,1.372,1.636,1.372c0,0,0,0,0.004,0h0.745l0,0
	c1.065,0,1.971,0.664,2.332,1.602c0,0.001,0,0.003,0,0.003c0.025,0.063,0.046,0.126,0.062,0.188
	c0.004,0.003,0.004,0.007,0.006,0.011c0.224,0.664,0.493,1.311,0.801,1.935c0.004,0.002,0.005,0.006,0.006,0.009
	c0.027,0.048,0.051,0.099,0.074,0.149c0.146,0.316,0.228,0.67,0.228,1.039c0,0.689-0.28,1.314-0.733,1.766l0.004,0.004l-0.509,0.508
	c-0.006,0.005-0.013,0.012-0.02,0.019c-0.006,0.006-0.014,0.014-0.018,0.021c-0.555,0.571-0.62,1.446-0.188,2.086
	c0.074,0.087,0.146,0.176,0.219,0.261c0.356,0.42,0.729,0.822,1.118,1.212l0,0c0.391,0.389,0.797,0.766,1.217,1.121
	c0.085,0.071,0.169,0.142,0.254,0.213c0.578,0.39,1.345,0.375,1.911-0.037l0.367-0.365l0.343-0.344l0.014,0.015
	c0.756-0.755,1.883-0.924,2.805-0.504c0.048,0.02,0.095,0.043,0.139,0.068c0.002,0.002,0.009,0.002,0.012,0.005
	c0.627,0.313,1.28,0.583,1.95,0.81c0.059,0.017,0.116,0.038,0.172,0.058c0.327,0.122,0.634,0.313,0.898,0.575
	c0.488,0.488,0.733,1.125,0.733,1.766h0.007v0.728c0,0.859,0.655,1.57,1.495,1.655v0.01c0.605,0.058,1.217,0.085,1.837,0.085
	c0.62,0,1.23-0.027,1.837-0.085l-0.001-0.01c0.838-0.085,1.496-0.796,1.496-1.655v-0.742c0-1.002,0.59-1.865,1.439-2.262
	c0.174-0.08,0.355-0.142,0.546-0.182c0.55-0.193,1.08-0.414,1.6-0.664c0.15-0.099,0.312-0.18,0.482-0.241
	c0.271-0.102,0.566-0.158,0.873-0.158c0.635,0,1.214,0.236,1.656,0.628c0.075,0.065,0.147,0.136,0.215,0.214l0.426,0.427
	l0.001-0.002c0.586,0.584,1.506,0.643,2.156,0.172c0.003,0,0.006-0.003,0.007-0.007c0.055-0.044,0.106-0.089,0.159-0.132
	c0.438-0.369,0.857-0.755,1.262-1.158c0.403-0.403,0.788-0.823,1.158-1.261c0.047-0.057,0.095-0.114,0.142-0.172
	c0.459-0.626,0.417-1.5-0.113-2.087l-0.002-0.003l-0.117-0.118l0,0l-0.465-0.465v-0.001c-0.746-0.746-0.922-1.843-0.528-2.754
	c0.036-0.085,0.078-0.169,0.124-0.25c0.296-0.6,0.555-1.223,0.773-1.861c0.023-0.086,0.051-0.17,0.085-0.252
	c0.121-0.311,0.309-0.603,0.559-0.854c0.487-0.487,1.126-0.729,1.767-0.729v-0.004h0.719v-0.011c0.89,0,1.617-0.699,1.661-1.577
	l0.025,0.003c0.051-0.576,0.075-1.158,0.075-1.744C41.017,20.378,40.988,19.763,40.932,19.155z M31.232,21L31.232,21
	c0,1.165-0.194,2.286-0.552,3.329c-0.136,0.397-0.297,0.784-0.479,1.157c-0.498,1.022-1.166,1.951-1.959,2.749
	c-0.797,0.798-1.723,1.465-2.743,1.969c-0.379,0.186-0.769,0.348-1.168,0.486c-1.045,0.362-2.167,0.559-3.332,0.563
	c-0.01,0-0.021,0-0.031,0c-1.155,0-2.263-0.19-3.3-0.541c-0.417-0.14-0.82-0.309-1.208-0.499c-1.018-0.497-1.94-1.157-2.733-1.949
	c-0.801-0.793-1.467-1.717-1.97-2.738c-0.189-0.387-0.358-0.786-0.498-1.196c-0.356-1.036-0.551-2.146-0.553-3.304
	c0.004-1.155,0.197-2.316,0.553-3.353c0.14-0.412,0.309-0.812,0.498-1.197c0.504-1.021,1.169-1.946,1.97-2.739
	c0.799-0.797,1.728-1.461,2.751-1.959c0.384-0.185,0.78-0.348,1.19-0.487c1.038-0.353,2.146-0.542,3.3-0.542c0.01,0,0.021,0,0.031,0
	c1.165,0.004,2.287,0.202,3.332,0.562c0.399,0.139,0.789,0.302,1.165,0.488c1.023,0.502,1.949,1.171,2.743,1.967
	c0.792,0.796,1.453,1.716,1.952,2.73c0.186,0.379,0.349,0.772,0.488,1.177c0.356,1.039,0.552,2.156,0.552,3.318V21z"/>
</svg>
