<?xml version="1.0" encoding="utf-8"?>
<!-- Generator: Adobe Illustrator 16.0.0, SVG Export Plug-In . SVG Version: 6.00 Build 0)  -->
<!DOCTYPE svg PUBLIC "-//W3C//DTD SVG 1.1//EN" "http://www.w3.org/Graphics/SVG/1.1/DTD/svg11.dtd">
<svg version="1.1" id="Layer_1" xmlns="http://www.w3.org/2000/svg" xmlns:xlink="http://www.w3.org/1999/xlink" x="0px" y="0px"
	 width="40px" height="40px" viewBox="0 0 40 40" enable-background="new 0 0 40 40" xml:space="preserve">
<g>
	<g>
		<path fill="#DF473B" d="M20,0c11.045,0,20,8.956,20,20c0,11.047-8.955,20-20,20C8.954,40,0,31.047,0,20C0,8.956,8.953,0,20,0z"/>
	</g>
	<g>
		<g>
			
				<rect x="7.291" y="19.01" transform="matrix(0.7071 0.7071 -0.7071 0.7071 20.2418 -8.1785)" fill="#FFFFFF" width="25.405" height="2.67"/>
		</g>
		<g>
			
				<rect x="18.665" y="7.641" transform="matrix(0.7073 0.7069 -0.7069 0.7073 20.2358 -8.184)" fill="#FFFFFF" width="2.67" height="25.405"/>
		</g>
	</g>
</g>
</svg>
