<?xml version="1.0" encoding="utf-8"?>
<!-- Generator: Adobe Illustrator 16.0.0, SVG Export Plug-In . SVG Version: 6.00 Build 0)  -->
<!DOCTYPE svg PUBLIC "-//W3C//DTD SVG 1.1//EN" "http://www.w3.org/Graphics/SVG/1.1/DTD/svg11.dtd">
<svg version="1.1" id="Layer_1" xmlns="http://www.w3.org/2000/svg" xmlns:xlink="http://www.w3.org/1999/xlink" x="0px" y="0px"
	 width="16.822px" height="16.896px" viewBox="0 0 16.822 16.896" enable-background="new 0 0 16.822 16.896" xml:space="preserve">
<path fill="#3D5DAA" d="M15.137,1.526h-1.384V1.242C13.753,0.558,13.196,0,12.511,0c-0.685,0-1.242,0.558-1.242,1.242v0.284H5.731
	V1.242C5.731,0.558,5.174,0,4.489,0S3.247,0.558,3.247,1.242v0.284H1.686C0.756,1.526,0,2.283,0,3.212v11.999
	c0,0.929,0.756,1.686,1.686,1.686h13.451c0.93,0,1.686-0.756,1.686-1.686V3.212C16.822,2.283,16.066,1.526,15.137,1.526z
	 M12.263,1.242c0-0.137,0.111-0.248,0.248-0.248c0.138,0,0.249,0.111,0.249,0.248v2.45c0,0.137-0.111,0.249-0.249,0.249
	c-0.137,0-0.248-0.111-0.248-0.249V1.242z M4.24,1.242c0-0.137,0.111-0.248,0.249-0.248s0.249,0.111,0.249,0.248v2.45
	c0,0.137-0.111,0.249-0.249,0.249S4.24,3.829,4.24,3.692V1.242z M15.828,15.211c0,0.382-0.31,0.691-0.691,0.691H1.686
	c-0.382,0-0.691-0.31-0.691-0.691V6.318h14.834V15.211z M15.828,5.466H0.994V3.212c0-0.382,0.31-0.691,0.691-0.691h1.561v1.171
	c0,0.685,0.557,1.242,1.242,1.242s1.243-0.557,1.243-1.242V2.521h5.537v1.171c0,0.685,0.558,1.242,1.242,1.242
	c0.686,0,1.242-0.557,1.242-1.242V2.521h1.384c0.382,0,0.691,0.31,0.691,0.691V5.466z M10.446,13.341
	c0.194,0.194,0.452,0.302,0.728,0.302c0.024,0,0.049-0.002,0.073-0.003c0.024,0.001,0.048,0.003,0.073,0.003
	c0.274,0,0.533-0.107,0.728-0.302l2.913-2.914c0.402-0.401,0.402-1.054,0-1.456c-0.194-0.194-0.452-0.302-0.728-0.302
	S13.7,8.777,13.506,8.972l-2.259,2.258l-0.726-0.726c-0.194-0.194-0.453-0.302-0.728-0.302s-0.534,0.107-0.728,0.302
	s-0.301,0.453-0.301,0.728c0,0.275,0.107,0.533,0.302,0.728L10.446,13.341z M9.567,11.007c0.024-0.024,0.051-0.042,0.08-0.057
	c0.046-0.024,0.096-0.037,0.146-0.037c0.061,0,0.123,0.018,0.176,0.053c0.018,0.012,0.035,0.025,0.05,0.041l0.726,0.726l0.251,0.251
	l0.251,0.251l2.761-2.761c0.063-0.063,0.144-0.094,0.226-0.094s0.164,0.031,0.226,0.094c0.125,0.125,0.125,0.327,0,0.452
	l-2.323,2.323l-0.59,0.59c-0.063,0.063-0.145,0.094-0.226,0.094c-0.025,0-0.049-0.004-0.073-0.01
	c-0.021,0.005-0.043,0.008-0.063,0.009c-0.011,0-0.021-0.001-0.031-0.002c-0.018-0.001-0.034-0.003-0.05-0.007
	c-0.01-0.002-0.019-0.004-0.027-0.007c-0.024-0.008-0.049-0.018-0.071-0.032c-0.02-0.012-0.038-0.026-0.056-0.044l-0.296-0.296
	l-0.294-0.294l-0.791-0.79C9.443,11.334,9.443,11.131,9.567,11.007z M6.902,10.667h0.213c0.626,0,1.136-0.51,1.136-1.136V9.318
	c0-0.626-0.51-1.136-1.136-1.136H6.902c-0.626,0-1.136,0.509-1.136,1.136v0.213C5.767,10.157,6.276,10.667,6.902,10.667z
	 M6.619,9.318c0-0.157,0.127-0.284,0.284-0.284h0.213c0.157,0,0.284,0.127,0.284,0.284v0.213c0,0.157-0.127,0.284-0.284,0.284H6.902
	c-0.157,0-0.284-0.127-0.284-0.284V9.318z M6.902,13.556h0.213c0.626,0,1.136-0.51,1.136-1.136v-0.213
	c0-0.626-0.51-1.136-1.136-1.136H6.902c-0.626,0-1.136,0.509-1.136,1.136v0.213C5.767,13.046,6.276,13.556,6.902,13.556z
	 M6.619,12.207c0-0.157,0.127-0.284,0.284-0.284h0.213c0.157,0,0.284,0.127,0.284,0.284v0.213c0,0.157-0.127,0.284-0.284,0.284
	H6.902c-0.157,0-0.284-0.127-0.284-0.284V12.207z M3.992,13.556h0.213c0.626,0,1.136-0.51,1.136-1.136v-0.213
	c0-0.626-0.51-1.136-1.136-1.136H3.992c-0.626,0-1.136,0.509-1.136,1.136v0.213C2.856,13.046,3.366,13.556,3.992,13.556z
	 M3.708,12.207c0-0.157,0.127-0.284,0.284-0.284h0.213c0.157,0,0.284,0.127,0.284,0.284v0.213c0,0.157-0.127,0.284-0.284,0.284
	H3.992c-0.157,0-0.284-0.127-0.284-0.284V12.207z"/>
</svg>
