<?xml version="1.0" encoding="utf-8"?>
<!-- Generator: Adobe Illustrator 16.0.0, SVG Export Plug-In . SVG Version: 6.00 Build 0)  -->
<!DOCTYPE svg PUBLIC "-//W3C//DTD SVG 1.1//EN" "http://www.w3.org/Graphics/SVG/1.1/DTD/svg11.dtd">
<svg version="1.1" id="Layer_1" xmlns="http://www.w3.org/2000/svg" xmlns:xlink="http://www.w3.org/1999/xlink" x="0px" y="0px"
	 width="200px" height="200px" viewBox="0 0 200 200" enable-background="new 0 0 200 200" xml:space="preserve">
<g>
	<g>
		<circle fill="none" stroke="#ED1C24" stroke-width="2" stroke-miterlimit="10" cx="100" cy="100" r="97"/>
	</g>
	<g>
		<path fill="none" stroke="#ED1C24" stroke-width="2" stroke-miterlimit="10" d="M154.632,76.307v-3.64
			c0-6.817-5.528-12.347-12.346-12.347H57.714c-6.818,0-12.347,5.529-12.347,12.347v3.64H154.632z"/>
		<path fill="none" stroke="#ED1C24" stroke-width="2" stroke-miterlimit="10" d="M45.367,87.475v39.859
			c0,6.816,5.528,12.346,12.347,12.346h84.572c6.817,0,12.346-5.527,12.346-12.346V87.475H45.367z M73.461,128.163H58.803v-14.401
			h14.658V128.163z"/>
	</g>
</g>
</svg>
