<?xml version="1.0" encoding="utf-8"?>
<!-- Generator: Adobe Illustrator 16.0.0, SVG Export Plug-In . SVG Version: 6.00 Build 0)  -->
<!DOCTYPE svg PUBLIC "-//W3C//DTD SVG 1.1//EN" "http://www.w3.org/Graphics/SVG/1.1/DTD/svg11.dtd">
<svg version="1.1" id="Layer_1" xmlns="http://www.w3.org/2000/svg" xmlns:xlink="http://www.w3.org/1999/xlink" x="0px" y="0px"
	 width="150px" height="150px" viewBox="0 0 150 150" enable-background="new 0 0 150 150" xml:space="preserve">
<circle fill="#FFFFFF" cx="75" cy="75" r="70"/>
<path fill="#F36D61" d="M38.291,70.708h33.264v-16.58H38.291V70.708z M78.111,54.127v16.58h33.598v-16.58H78.111z M78.111,117.709
	h31.502v-28.33H78.111V117.709z M40.749,117.709h30.804v-28.33H40.749V117.709z M40.749,82.611h30.804V72.165H40.749V82.611z
	 M78.111,82.611h31.502V72.165H78.111V82.611z M50.542,48.284c4.798,2.915,9.291,4.007,11.781,4.857h25.2
	c0,0,9.596-2.488,12.33-5.222c2.73-2.732,4.432-8.928,0-13.178c-4.436-4.25-12.178-2.945-16.549,3.705l-8.292,10.838l-8.836-11.113
	c0,0-4.691-7.607-12.205-5.466C46.458,34.848,45.743,45.369,50.542,48.284z M89.953,38.325c0.791-0.485,3.766-3.098,7.045,0
	c0,0,2.066,3.627-0.439,6.042c-2.504,2.414-12.023,4.918-16.396,5.921C80.16,50.288,89.164,38.811,89.953,38.325z M53.881,37.443
	c0,0,3.825-2.277,8.018,2.915c4.189,5.192,7.742,9.929,7.742,9.929s-14.209-3.37-14.394-4.463
	C54.747,45.02,49.602,43.365,53.881,37.443z"/>
</svg>
