<?xml version="1.0" encoding="utf-8"?>
<!-- Generator: Adobe Illustrator 16.0.0, SVG Export Plug-In . SVG Version: 6.00 Build 0)  -->
<!DOCTYPE svg PUBLIC "-//W3C//DTD SVG 1.1//EN" "http://www.w3.org/Graphics/SVG/1.1/DTD/svg11.dtd">
<svg version="1.1" id="Layer_1" xmlns="http://www.w3.org/2000/svg" xmlns:xlink="http://www.w3.org/1999/xlink" x="0px" y="0px"
	 width="150px" height="150px" viewBox="0 0 150 150" enable-background="new 0 0 150 150" xml:space="preserve">
<circle fill="#FFFFFF" cx="75" cy="75" r="70"/>
<path fill="#09A148" d="M64.758,50.999c-5.743,2.917-8.073,9.857-5.324,15.64h21.376c1.52-3.2,1.603-7.039-0.127-10.443
	C77.721,50.359,70.588,48.038,64.758,50.999z M35.215,59.455l53.788-27.324c1.528,1.853,3.558,3.152,5.78,3.81
	c1.018,0.302,2.072,0.468,3.143,0.487c1.047,0.02,2.105-0.095,3.148-0.364l7.568,14.902c-0.832,0.686-1.545,1.476-2.146,2.334
	c-0.614,0.876-1.104,1.825-1.46,2.823c-0.181,0.503-0.328,1.016-0.438,1.538c-0.207,0.984-0.283,1.997-0.231,3.014
	c0.051,1.021,0.225,2.045,0.551,3.049l-5.735,2.915h5.696l1.208-0.614l10.415-5.29l-5.556-10.938L98.143,24.594l-4.949,2.515
	l-2.517-4.95L16.28,59.951l18.36,36.142l2.361-1.198V92l-1.229,0.624L19.75,61.083l69.795-35.455l1.346,2.649l-67.145,34.11
	l12.802,25.204l0.453,0.89v-5.696L31.279,71.52C34.811,68.614,36.354,63.884,35.215,59.455z M47.754,104.302h13.764v-4.517H47.754
	V104.302z M113.419,68.359h-11.928h-5.7H79.82H60.438H43.022c-2.374,0-4.301,1.927-4.301,4.302v13.51v7.849v19.521
	c0,2.374,1.928,4.301,4.301,4.301h70.396c2.373,0,4.301-1.927,4.301-4.301v-40.88C117.721,70.286,115.792,68.359,113.419,68.359z
	 M115.139,113.541c0,0.945-0.771,1.721-1.72,1.721H43.022c-0.946,0-1.72-0.772-1.72-1.721V96.948v-4.69h13.143h60.694V113.541
	L115.139,113.541z M115.139,80.223H78.137h-5.698H41.303v-7.562c0-0.947,0.773-1.72,1.72-1.72h19.882h14.443h13.364h5.698h17.009
	c0.946,0,1.72,0.772,1.72,1.72V80.223z"/>
</svg>
