<?xml version="1.0" encoding="utf-8"?>
<!-- Generator: Adobe Illustrator 16.0.0, SVG Export Plug-In . SVG Version: 6.00 Build 0)  -->
<!DOCTYPE svg PUBLIC "-//W3C//DTD SVG 1.1//EN" "http://www.w3.org/Graphics/SVG/1.1/DTD/svg11.dtd">
<svg version="1.1" id="Layer_1" xmlns="http://www.w3.org/2000/svg" xmlns:xlink="http://www.w3.org/1999/xlink" x="0px" y="0px"
	 width="150px" height="150px" viewBox="0 0 150 150" enable-background="new 0 0 150 150" xml:space="preserve">
<circle display="none" opacity="0.3" fill="#FFFFFF" enable-background="new    " cx="103.501" cy="102.5" r="100"/>
<circle fill="#FFFFFF" cx="75" cy="75" r="70"/>
<g>
	<g>
		<polygon fill="#1C57FF" points="61.896,65.47 22,65.47 22,67.584 61.21,67.584 		"/>
		<polygon fill="#1C57FF" points="59.159,73.929 22,73.929 22,76.044 58.475,76.044 		"/>
		<polygon fill="#1C57FF" points="64.63,57.01 22,57.01 22,59.126 63.947,59.126 		"/>
		<polygon fill="#1C57FF" points="67.367,48.552 22,48.552 22,50.665 66.684,50.665 		"/>
		<polygon fill="#1C57FF" points="70.104,40.095 22,40.095 22,42.207 69.419,42.207 		"/>
		<polygon fill="#1C57FF" points="50.952,99.304 22,99.304 22,101.422 50.268,101.422 		"/>
		<polygon fill="#1C57FF" points="48.216,107.761 22,107.761 22,109.88 47.53,109.88 		"/>
		<polygon fill="#1C57FF" points="56.424,82.384 22,82.384 22,84.499 55.74,84.499 		"/>
		<polygon fill="#1C57FF" points="53.688,90.845 22,90.845 22,92.961 53.004,92.961 		"/>
	</g>
	<path fill="#1C57FF" d="M123.675,40.518l-37.427-0.004c-3.333,0-6.955,2.69-8.089,6.012l-19.583,57.366
		c-1.133,3.319,0.65,6.01,3.984,6.01l37.428,0.004c3.332,0,6.953-2.69,8.087-6.01l19.583-57.367
		C128.792,43.209,127.012,40.519,123.675,40.518z M82.479,106.368c-1.603,0-2.457-1.291-1.912-2.889
		c0.545-1.594,2.285-2.891,3.889-2.891c1.602,0.002,2.459,1.297,1.914,2.891C85.822,105.077,84.083,106.369,82.479,106.368z
		 M104.501,96.683l-37.426-0.004l17.12-50.153l37.43,0.004L104.501,96.683z M85.346,61.69c-0.212,0.617,0.121,1.115,0.738,1.115
		l12.411,0.002c-0.027,0.066-0.048,0.129-0.074,0.196c-1.444,2.886-5.61,4.966-11.438,5.713l-3.336,0.427l8.403,19.801
		c0.202,0.486,0.675,0.736,1.239,0.736c0.396,0,0.837-0.123,1.261-0.385c1.033-0.623,1.593-1.79,1.245-2.605l-6.302-14.854
		c8.11-1.823,11.271-5.896,12.465-8.34l0.043-0.103c0.087-0.201,0.157-0.391,0.235-0.588h6.381c0.619,0,1.293-0.498,1.503-1.115
		c0.21-0.616-0.121-1.116-0.74-1.116l-6.42-0.001c0.485-1.995,0.429-3.711-0.17-5.137h8.347c0.615,0,1.289-0.5,1.5-1.115
		c0.213-0.617-0.121-1.118-0.74-1.118l-22.532-0.001c-0.621,0-1.291,0.5-1.505,1.115c-0.207,0.617,0.121,1.117,0.742,1.119h7.469
		c0.783,0.18,2.188,0.676,2.875,1.994c0.421,0.826,0.51,1.877,0.257,3.143l-12.354-0.002C86.229,60.572,85.555,61.072,85.346,61.69z
		"/>
</g>
</svg>
