<?xml version="1.0" encoding="utf-8"?>
<!-- Generator: Adobe Illustrator 16.0.0, SVG Export Plug-In . SVG Version: 6.00 Build 0)  -->
<!DOCTYPE svg PUBLIC "-//W3C//DTD SVG 1.1//EN" "http://www.w3.org/Graphics/SVG/1.1/DTD/svg11.dtd">
<svg version="1.1" id="Layer_1" xmlns="http://www.w3.org/2000/svg" xmlns:xlink="http://www.w3.org/1999/xlink" x="0px" y="0px"
	 width="200px" height="200px" viewBox="0 0 200 200" enable-background="new 0 0 200 200" xml:space="preserve">
<g>
	<circle fill="#20353F" cx="100.023" cy="99.033" r="100"/>
	<g>
		<path fill="#E2574C" d="M159.641,61.778H40.405c-4.247,0-7.691,3.445-7.691,7.693v103.262
			c17.346,17.012,41.098,27.514,67.309,27.514c26.215,0,49.965-10.502,67.311-27.514V69.472
			C167.333,65.224,163.888,61.778,159.641,61.778z"/>
		<path fill="#F0DDAB" d="M151.948,79.087H48.098c-2.122,0-3.846,1.724-3.846,3.848v99.462
			c15.734,11.225,34.974,17.851,55.771,17.851c20.798,0,40.036-6.626,55.771-17.851V82.935
			C155.794,80.811,154.07,79.087,151.948,79.087z"/>
		<path fill="#BF392B" d="M159.641,61.778H40.405c-4.247,0-7.691,3.445-7.691,7.693v3.847c0-4.248,3.444-7.692,7.691-7.692h119.235
			c4.247,0,7.692,3.444,7.692,7.692v-3.847C167.333,65.224,163.888,61.778,159.641,61.778z"/>
		<path fill="#D8C69A" d="M136.562,163.706H63.483c-1.062,0-1.923,0.858-1.923,1.924c0,1.062,0.86,1.922,1.923,1.922h73.079
			c1.062,0,1.924-0.86,1.924-1.922C138.486,164.564,137.625,163.706,136.562,163.706z M136.562,144.474H63.483
			c-1.062,0-1.923,0.859-1.923,1.924c0,1.062,0.86,1.924,1.923,1.924h73.079c1.062,0,1.924-0.861,1.924-1.924
			C138.486,145.333,137.625,144.474,136.562,144.474z M136.562,125.242H63.483c-1.062,0-1.923,0.863-1.923,1.924
			c0,1.064,0.86,1.924,1.923,1.924h73.079c1.062,0,1.924-0.859,1.924-1.924C138.486,126.105,137.625,125.242,136.562,125.242z
			 M136.562,182.938H63.483c-1.062,0-1.923,0.857-1.923,1.923c0,1.063,0.86,1.923,1.923,1.923h73.079
			c1.062,0,1.924-0.859,1.924-1.923C138.486,183.795,137.625,182.938,136.562,182.938z M63.483,109.857h73.079
			c1.062,0,1.924-0.858,1.924-1.923c0-1.062-0.861-1.924-1.924-1.924H63.483c-1.062,0-1.923,0.862-1.923,1.924
			C61.561,108.999,62.421,109.857,63.483,109.857z"/>
		<path fill="#CCD0D2" d="M63.483,69.472h75.003c1.062,0,1.924,0.863,1.924,1.923v13.464c0,3.188-2.586,5.768-5.77,5.768H67.328
			c-3.183,0-5.768-2.58-5.768-5.768V71.395C61.561,70.335,62.421,69.472,63.483,69.472z M89.163,50.241h24.321
			c3.187,0,4.85,2.326,5.77,5.77l3.847,13.461H80.793l3.845-13.461C85.199,53.566,86.32,50.241,89.163,50.241z"/>
		<path fill="#A4A7A9" d="M82.074,64.986l-1.281,4.485h42.308l-1.281-4.485H82.074z"/>
		<path fill="#B7BBBD" d="M138.486,69.472H63.483c-1.062,0-1.923,0.863-1.923,1.923v5.769c0-1.06,0.86-1.922,1.923-1.922h75.003
			c1.062,0,1.924,0.862,1.924,1.922v-5.769C140.41,70.335,139.549,69.472,138.486,69.472z"/>
	</g>
	<g>
		<circle fill="#3AAD73" cx="135.283" cy="109.333" r="8"/>
		<path opacity="0.15" enable-background="new    " d="M135.283,117.333c4.418,0,8-3.582,8-8s-3.582-8-8-8s-8,3.582-8,8
			S130.865,117.333,135.283,117.333z M135.283,102.333c3.865,0,7,3.134,7,7c0,3.865-3.135,7-7,7s-7-3.135-7-7
			C128.283,105.467,131.418,102.333,135.283,102.333z"/>
		<path fill="#FFFFFF" d="M138.98,106.606c-0.391-0.392-1.073-0.342-1.465,0.049l-3.263,3.263l-1.278-1.277
			c-0.39-0.392-1.062-0.43-1.452-0.038c-0.39,0.391-0.315,1.098,0.075,1.488l1.948,1.949c0.39,0.391,1.024,0.391,1.414,0l4.04-4.039
			C139.39,107.61,139.371,106.996,138.98,106.606z"/>
	</g>
	<g>
		<circle fill="#3AAD73" cx="135.274" cy="128.083" r="8"/>
		<path opacity="0.15" enable-background="new    " d="M135.274,136.083c4.418,0,8-3.582,8-8s-3.582-8-8-8s-8,3.582-8,8
			S130.856,136.083,135.274,136.083z M135.274,121.083c3.865,0,7,3.134,7,7c0,3.865-3.135,7-7,7s-7-3.135-7-7
			C128.274,124.217,131.409,121.083,135.274,121.083z"/>
		<path fill="#FFFFFF" d="M138.972,125.356c-0.391-0.392-1.073-0.342-1.465,0.049l-3.263,3.263l-1.278-1.277
			c-0.39-0.392-1.062-0.43-1.452-0.038c-0.39,0.391-0.315,1.098,0.075,1.488l1.948,1.949c0.39,0.391,1.024,0.391,1.414,0l4.04-4.039
			C139.381,126.36,139.362,125.746,138.972,125.356z"/>
	</g>
	<g>
		<circle fill="#3AAD73" cx="135.283" cy="146.833" r="8"/>
		<path opacity="0.15" enable-background="new    " d="M135.283,154.833c4.418,0,8-3.582,8-8s-3.582-8-8-8s-8,3.582-8,8
			S130.865,154.833,135.283,154.833z M135.283,139.833c3.865,0,7,3.134,7,7c0,3.865-3.135,7-7,7s-7-3.135-7-7
			C128.283,142.967,131.418,139.833,135.283,139.833z"/>
		<path fill="#FFFFFF" d="M138.98,144.106c-0.391-0.392-1.073-0.342-1.465,0.049l-3.263,3.263l-1.278-1.277
			c-0.39-0.392-1.062-0.43-1.452-0.038c-0.39,0.391-0.315,1.098,0.075,1.488l1.948,1.949c0.39,0.391,1.024,0.391,1.414,0l4.04-4.039
			C139.39,145.11,139.371,144.496,138.98,144.106z"/>
	</g>
	<g>
		<circle fill="#3AAD73" cx="135.274" cy="165.583" r="8"/>
		<path opacity="0.15" enable-background="new    " d="M135.274,173.583c4.418,0,8-3.582,8-8s-3.582-8-8-8s-8,3.582-8,8
			S130.856,173.583,135.274,173.583z M135.274,158.583c3.865,0,7,3.134,7,7c0,3.865-3.135,7-7,7s-7-3.135-7-7
			C128.274,161.717,131.409,158.583,135.274,158.583z"/>
		<path fill="#FFFFFF" d="M138.972,162.856c-0.391-0.392-1.073-0.342-1.465,0.049l-3.263,3.263l-1.278-1.277
			c-0.39-0.392-1.062-0.43-1.452-0.038c-0.39,0.391-0.315,1.098,0.075,1.488l1.948,1.949c0.39,0.391,1.024,0.391,1.414,0l4.04-4.039
			C139.381,163.86,139.362,163.246,138.972,162.856z"/>
	</g>
	<g>
		<circle fill="#3AAD73" cx="135.274" cy="184.333" r="8"/>
		<path opacity="0.15" enable-background="new    " d="M135.274,192.333c4.418,0,8-3.582,8-8s-3.582-8-8-8s-8,3.582-8,8
			S130.856,192.333,135.274,192.333z M135.274,177.333c3.865,0,7,3.134,7,7c0,3.865-3.135,7-7,7s-7-3.135-7-7
			C128.274,180.467,131.409,177.333,135.274,177.333z"/>
		<path fill="#FFFFFF" d="M138.972,181.606c-0.391-0.392-1.073-0.342-1.465,0.049l-3.263,3.263l-1.278-1.277
			c-0.39-0.392-1.062-0.43-1.452-0.038c-0.39,0.391-0.315,1.098,0.075,1.488l1.948,1.949c0.39,0.391,1.024,0.391,1.414,0l4.04-4.039
			C139.381,182.61,139.362,181.996,138.972,181.606z"/>
	</g>
</g>
</svg>
