<?xml version="1.0" encoding="utf-8"?>
<!-- Generator: Adobe Illustrator 16.0.0, SVG Export Plug-In . SVG Version: 6.00 Build 0)  -->
<!DOCTYPE svg PUBLIC "-//W3C//DTD SVG 1.1//EN" "http://www.w3.org/Graphics/SVG/1.1/DTD/svg11.dtd">
<svg version="1.1" id="Layer_1" xmlns="http://www.w3.org/2000/svg" xmlns:xlink="http://www.w3.org/1999/xlink" x="0px" y="0px"
	 width="60px" height="60px" viewBox="0 0 60 60" enable-background="new 0 0 60 60" xml:space="preserve">
<g>
	<path fill="#C4C4C4" d="M30,0c16.568,0,30,13.432,30,30S46.568,60,30,60C13.431,60,0,46.568,0,30S13.431,0,30,0z"/>
	<path fill="#FFFFFF" d="M25.249,33.869c4.808,4.775,9.113,6.213,9.711,6.299c0.601,0.085,1.581,0.271,3.007-1.139
		c1.666-1.656,1.834-2.527,0.916-3.438c-0.918-0.913-3.197-2.292-3.816-2.647c-0.62-0.354-1.146-0.24-1.594,0.067
		c-0.446,0.31-0.963,0.703-1.439,1.048c-0.479,0.344-1.074,0.488-1.716,0.086c-0.64-0.403-1.724-1.16-2.951-2.379
		c-1.226-1.219-1.987-2.297-2.394-2.933c-0.406-0.638-0.26-1.229,0.086-1.703c0.345-0.476,0.742-0.987,1.053-1.432
		c0.313-0.443,0.426-0.968,0.068-1.583c-0.357-0.616-1.746-2.881-2.664-3.792c-0.918-0.912-1.793-0.745-3.459,0.911
		c-1.424,1.414-1.232,2.39-1.146,2.984C18.995,24.816,20.441,29.093,25.249,33.869L25.249,33.869z"/>
</g>
</svg>
