<?xml version="1.0" encoding="utf-8"?>
<!-- Generator: Adobe Illustrator 16.0.0, SVG Export Plug-In . SVG Version: 6.00 Build 0)  -->
<!DOCTYPE svg PUBLIC "-//W3C//DTD SVG 1.1//EN" "http://www.w3.org/Graphics/SVG/1.1/DTD/svg11.dtd">
<svg version="1.1" id="Layer_1" xmlns="http://www.w3.org/2000/svg" xmlns:xlink="http://www.w3.org/1999/xlink" x="0px" y="0px"
	 width="22.955px" height="22.554px" viewBox="0 0 22.955 22.554" enable-background="new 0 0 22.955 22.554" xml:space="preserve">
<path fill="#212221" d="M5.656,5.315c-0.667,0-1.208-0.541-1.208-1.208v-2.9C4.448,0.541,4.989,0,5.656,0s1.207,0.541,1.207,1.207
	v2.9C6.863,4.774,6.323,5.315,5.656,5.315z M17.413,5.315c-0.667,0-1.207-0.541-1.207-1.208v-2.9c0-0.666,0.54-1.207,1.207-1.207
	s1.208,0.541,1.208,1.207v2.9C18.621,4.774,18.08,5.315,17.413,5.315z M19.666,3.962c0,1.122-0.767,2.162-1.874,2.342
	c-1.411,0.23-2.631-0.854-2.631-2.221V2.401c0-0.367-0.298-0.664-0.664-0.664H8.572c-0.366,0-0.663,0.297-0.663,0.664v1.561
	c0,1.122-0.768,2.162-1.875,2.343c-1.411,0.229-2.63-0.854-2.63-2.222V2.401c0-0.367-0.298-0.664-0.664-0.664H1.602
	C0.717,1.737,0,2.453,0,3.338v17.615c0,0.884,0.717,1.601,1.602,1.601h19.753c0.884,0,1.601-0.717,1.601-1.601V3.338
	c0-0.885-0.717-1.601-1.601-1.601H20.33c-0.366,0-0.664,0.297-0.664,0.664V3.962z M2.78,20.435c-0.369,0-0.668-0.299-0.668-0.669
	V8.053c0-0.369,0.299-0.669,0.668-0.669h17.363c0.369,0,0.668,0.3,0.668,0.669v11.713c0,0.37-0.299,0.669-0.668,0.669H2.78z
	 M8.692,13.403c-0.52,0-0.94-0.421-0.94-0.94v-1.415c0-0.52,0.421-0.94,0.94-0.94h1.415c0.52,0,0.941,0.421,0.941,0.94v1.415
	c0,0.52-0.422,0.94-0.941,0.94H8.692z M12.811,13.403c-0.52,0-0.94-0.421-0.94-0.94v-1.415c0-0.52,0.421-0.94,0.94-0.94h1.415
	c0.52,0,0.941,0.421,0.941,0.94v1.415c0,0.52-0.422,0.94-0.941,0.94H12.811z M16.927,13.403c-0.52,0-0.941-0.421-0.941-0.94v-1.415
	c0-0.52,0.422-0.94,0.941-0.94h1.415c0.52,0,0.94,0.421,0.94,0.94v1.415c0,0.52-0.421,0.94-0.94,0.94H16.927z M4.577,17.52
	c-0.52,0-0.94-0.422-0.94-0.941v-1.415c0-0.52,0.421-0.94,0.94-0.94h1.415c0.52,0,0.94,0.421,0.94,0.94v1.415
	c0,0.52-0.421,0.941-0.94,0.941H4.577z M8.692,17.52c-0.519,0-0.94-0.422-0.94-0.941v-1.415c0-0.52,0.422-0.94,0.94-0.94h1.416
	c0.52,0,0.94,0.421,0.94,0.94v1.415c0,0.52-0.421,0.941-0.94,0.941H8.692z M12.811,17.52c-0.519,0-0.94-0.422-0.94-0.941v-1.415
	c0-0.52,0.422-0.94,0.94-0.94h1.415c0.52,0,0.941,0.421,0.941,0.94v1.415c0,0.52-0.422,0.941-0.941,0.941H12.811z M16.927,17.52
	c-0.52,0-0.94-0.422-0.94-0.941v-1.415c0-0.52,0.421-0.94,0.94-0.94h1.415c0.52,0,0.94,0.421,0.94,0.94v1.415
	c0,0.52-0.421,0.941-0.94,0.941H16.927z"/>
</svg>
