<?xml version="1.0" encoding="utf-8"?>
<!-- Generator: Adobe Illustrator 16.0.0, SVG Export Plug-In . SVG Version: 6.00 Build 0)  -->
<!DOCTYPE svg PUBLIC "-//W3C//DTD SVG 1.1//EN" "http://www.w3.org/Graphics/SVG/1.1/DTD/svg11.dtd">
<svg version="1.1" id="Layer_1" xmlns="http://www.w3.org/2000/svg" xmlns:xlink="http://www.w3.org/1999/xlink" x="0px" y="0px"
	 width="239.049px" height="242.848px" viewBox="0 0 239.049 242.848" enable-background="new 0 0 239.049 242.848"
	 xml:space="preserve">
<g>
	<g>
		<g>
			<path fill="#333333" d="M191.073,202.612c0-1.414-1.145-2.559-2.555-2.559c-1.387,0-2.508,1.096-2.557,2.471v13.34
				c0.047,0.705,0.6,1.277,1.297,1.334h17.105c1.275-0.143,2.266-1.197,2.266-2.506c0-1.35-1.045-2.449-2.371-2.545l-11.928-0.012
				c-0.682-0.064-1.225-0.605-1.26-1.301v-0.02c0-0.016-0.008-0.041-0.008-0.066c0-0.021,0.008-0.049,0.008-0.07v-8.066H191.073z
				 M213.22,194.815c-5.596-6.76-13.83-10.637-22.596-10.637v-1.465l-0.033,1.465c-15.141,0.014-27.969,11.832-29.203,26.906
				c-0.076,0.953-0.459,1.793-1.027,2.455h-3.15v-0.035l-3.658,0.004c-1.049,0.004-1.641,1.197-1.01,2.031l10.469,13.848
				c0.188,0.246,0.416,0.432,0.662,0.582l0.287,0.379c0.225,0.297,0.566,0.467,0.938,0.467s0.715-0.168,0.938-0.467l0.287-0.379
				c0.246-0.148,0.475-0.336,0.664-0.582l10.477-13.871c0.555-0.729,0.166-1.732-0.637-1.977h-6.82
				c-0.01-0.014-0.021-0.02-0.031-0.031c-0.799-0.926-1.146-2.154-0.961-3.363c1.629-10.664,11.008-18.705,21.813-18.705
				c1.584,0,3.189,0.17,4.775,0.5c8.281,1.746,15.025,8.48,16.781,16.758c1.416,6.674-0.186,13.486-4.395,18.688
				c-4.209,5.203-10.459,8.193-17.146,8.199c-4.359,0-8.568-1.283-12.188-3.713c-0.576-0.385-1.246-0.592-1.939-0.592
				c-1.166,0-2.264,0.576-2.938,1.535l-0.066,0.094c-0.561,0.797-0.781,1.816-0.602,2.783c0.168,0.906,0.666,1.68,1.402,2.174
				c4.838,3.26,10.479,4.982,16.313,4.982c2.023,0,4.084-0.209,6.119-0.623c11.361-2.305,20.469-11.502,22.658-22.885
				C221.077,210.526,218.823,201.586,213.22,194.815z"/>
		</g>
		<g>
			<path fill="#333333" d="M119.525,239.049C53.619,239.049,0,185.432,0,119.524C0,53.618,53.62,0.001,119.525,0.001
				c65.906,0,119.523,53.618,119.523,119.523c0,28.382-10.121,55.894-28.5,77.466l-3.807-3.242
				c17.609-20.668,27.307-47.029,27.307-74.224c0-63.148-51.375-114.523-114.523-114.523C56.375,5.001,5,56.376,5,119.524
				c0,63.15,51.375,114.525,114.524,114.525c15.011,0,29.603-2.857,43.373-8.496l1.895,4.627
				C150.419,236.065,135.188,239.049,119.525,239.049z"/>
		</g>
	</g>
	<path fill="#333333" d="M177.774,135.641H163.63c-7.291,0-13.221-5.93-13.221-13.221c0-7.29,5.93-13.221,13.221-13.221h14.145
		c0.438,0,0.867,0.022,1.293,0.064h5.164V88.906c0-6.792-5.51-12.299-12.301-12.299H66.777c-6.792,0-12.299,5.506-12.299,12.299
		v64.569c0,6.793,5.507,12.299,12.299,12.299h105.156c6.791,0,12.299-5.506,12.299-12.299v-17.898h-5.164
		C178.642,135.619,178.212,135.641,177.774,135.641z M186.077,113.084c-0.225-0.079-0.461-0.129-0.711-0.129l-1.135-0.003
		l-5.451-0.008c-0.33-0.035-0.666-0.054-1.006-0.054H163.63c-5.256,0-9.531,4.276-9.531,9.532c0,5.256,4.275,9.531,9.531,9.531
		h14.145c0.34,0,0.676-0.02,1.006-0.055l0.191-0.012h6.395c0.25,0,0.486-0.049,0.711-0.129c0.824-0.295,1.422-1.076,1.422-2.004
		v-14.667C187.499,114.159,186.901,113.38,186.077,113.084z"/>
</g>
</svg>
