<?xml version="1.0" encoding="utf-8"?>
<!-- Generator: Adobe Illustrator 16.0.0, SVG Export Plug-In . SVG Version: 6.00 Build 0)  -->
<!DOCTYPE svg PUBLIC "-//W3C//DTD SVG 1.1//EN" "http://www.w3.org/Graphics/SVG/1.1/DTD/svg11.dtd">
<svg version="1.1" id="Layer_1" xmlns="http://www.w3.org/2000/svg" xmlns:xlink="http://www.w3.org/1999/xlink" x="0px" y="0px"
	 width="40.02px" height="40.021px" viewBox="0 0 40.02 40.021" enable-background="new 0 0 40.02 40.021" xml:space="preserve">
<g>
	<path fill="#3BB665" d="M20.01,0.01c11.045,0,20,8.955,20,20c0,11.045-8.955,20-20,20c-11.046,0-20-8.955-20-20
		C0.01,8.965,8.963,0.01,20.01,0.01z"/>
	<g>
		<polygon fill="#FFFFFF" points="16.123,28.309 8.949,21.135 10.597,19.487 16.123,25.012 29.422,11.713 31.072,13.361 		"/>
	</g>
</g>
</svg>
